<?xml version="1.0" encoding="UTF-8"?>
<svg xmlns="http://www.w3.org/2000/svg" xmlns:xlink="http://www.w3.org/1999/xlink" width="504pt" height="504pt" viewBox="0 0 504 504" version="1.1">
<defs>
<g>
<symbol overflow="visible" id="glyph0-0">
<path style="stroke:none;" d="M 1.5 0 L 1.5 -7.5 L 7.5 -7.5 L 7.5 0 Z M 1.6875 -0.1875 L 7.3125 -0.1875 L 7.3125 -7.3125 L 1.6875 -7.3125 Z M 1.6875 -0.1875 "/>
</symbol>
<symbol overflow="visible" id="glyph0-1">
<path style="stroke:none;" d="M 0.375 -2.578125 L 0.375 -3.640625 L 3.625 -3.640625 L 3.625 -2.578125 Z M 0.375 -2.578125 "/>
</symbol>
<symbol overflow="visible" id="glyph0-2">
<path style="stroke:none;" d="M 0.5 -4.234375 C 0.5 -5.253906 0.601562 -6.070312 0.8125 -6.6875 C 1.019531 -7.3125 1.328125 -7.789062 1.734375 -8.125 C 2.148438 -8.457031 2.671875 -8.625 3.296875 -8.625 C 3.753906 -8.625 4.15625 -8.53125 4.5 -8.34375 C 4.851562 -8.15625 5.144531 -7.882812 5.375 -7.53125 C 5.601562 -7.1875 5.78125 -6.765625 5.90625 -6.265625 C 6.03125 -5.765625 6.09375 -5.085938 6.09375 -4.234375 C 6.09375 -3.222656 5.988281 -2.410156 5.78125 -1.796875 C 5.582031 -1.179688 5.273438 -0.703125 4.859375 -0.359375 C 4.453125 -0.0234375 3.929688 0.140625 3.296875 0.140625 C 2.472656 0.140625 1.820312 -0.15625 1.34375 -0.75 C 0.78125 -1.457031 0.5 -2.617188 0.5 -4.234375 Z M 1.578125 -4.234375 C 1.578125 -2.828125 1.742188 -1.890625 2.078125 -1.421875 C 2.410156 -0.953125 2.816406 -0.71875 3.296875 -0.71875 C 3.785156 -0.71875 4.191406 -0.953125 4.515625 -1.421875 C 4.847656 -1.890625 5.015625 -2.828125 5.015625 -4.234375 C 5.015625 -5.648438 4.847656 -6.585938 4.515625 -7.046875 C 4.191406 -7.515625 3.78125 -7.75 3.28125 -7.75 C 2.800781 -7.75 2.414062 -7.546875 2.125 -7.140625 C 1.757812 -6.617188 1.578125 -5.648438 1.578125 -4.234375 Z M 1.578125 -4.234375 "/>
</symbol>
<symbol overflow="visible" id="glyph0-3">
<path style="stroke:none;" d="M 1.09375 0 L 1.09375 -1.203125 L 2.296875 -1.203125 L 2.296875 0 Z M 1.09375 0 "/>
</symbol>
<symbol overflow="visible" id="glyph0-4">
<path style="stroke:none;" d="M 0.5 -2.25 L 1.609375 -2.34375 C 1.691406 -1.800781 1.878906 -1.394531 2.171875 -1.125 C 2.472656 -0.851562 2.835938 -0.71875 3.265625 -0.71875 C 3.765625 -0.71875 4.191406 -0.910156 4.546875 -1.296875 C 4.898438 -1.679688 5.078125 -2.1875 5.078125 -2.8125 C 5.078125 -3.414062 4.90625 -3.890625 4.5625 -4.234375 C 4.226562 -4.585938 3.785156 -4.765625 3.234375 -4.765625 C 2.898438 -4.765625 2.59375 -4.6875 2.3125 -4.53125 C 2.039062 -4.375 1.828125 -4.175781 1.671875 -3.9375 L 0.6875 -4.0625 L 1.515625 -8.46875 L 5.796875 -8.46875 L 5.796875 -7.46875 L 2.359375 -7.46875 L 1.90625 -5.15625 C 2.414062 -5.519531 2.953125 -5.703125 3.515625 -5.703125 C 4.265625 -5.703125 4.894531 -5.441406 5.40625 -4.921875 C 5.925781 -4.398438 6.1875 -3.726562 6.1875 -2.90625 C 6.1875 -2.132812 5.960938 -1.460938 5.515625 -0.890625 C 4.960938 -0.203125 4.210938 0.140625 3.265625 0.140625 C 2.484375 0.140625 1.84375 -0.078125 1.34375 -0.515625 C 0.851562 -0.953125 0.570312 -1.53125 0.5 -2.25 Z M 0.5 -2.25 "/>
</symbol>
<symbol overflow="visible" id="glyph0-5">
<path style="stroke:none;" d="M 6.046875 -1.015625 L 6.046875 0 L 0.359375 0 C 0.359375 -0.25 0.398438 -0.492188 0.484375 -0.734375 C 0.628906 -1.117188 0.859375 -1.5 1.171875 -1.875 C 1.492188 -2.25 1.957031 -2.679688 2.5625 -3.171875 C 3.5 -3.941406 4.128906 -4.550781 4.453125 -5 C 4.785156 -5.445312 4.953125 -5.867188 4.953125 -6.265625 C 4.953125 -6.679688 4.800781 -7.03125 4.5 -7.3125 C 4.195312 -7.601562 3.804688 -7.75 3.328125 -7.75 C 2.816406 -7.75 2.410156 -7.597656 2.109375 -7.296875 C 1.804688 -6.992188 1.648438 -6.570312 1.640625 -6.03125 L 0.5625 -6.140625 C 0.632812 -6.953125 0.910156 -7.566406 1.390625 -7.984375 C 1.878906 -8.410156 2.535156 -8.625 3.359375 -8.625 C 4.179688 -8.625 4.832031 -8.394531 5.3125 -7.9375 C 5.789062 -7.476562 6.03125 -6.910156 6.03125 -6.234375 C 6.03125 -5.890625 5.957031 -5.550781 5.8125 -5.21875 C 5.675781 -4.894531 5.441406 -4.546875 5.109375 -4.171875 C 4.785156 -3.804688 4.25 -3.304688 3.5 -2.671875 C 2.863281 -2.140625 2.453125 -1.773438 2.265625 -1.578125 C 2.085938 -1.390625 1.941406 -1.203125 1.828125 -1.015625 Z M 6.046875 -1.015625 "/>
</symbol>
<symbol overflow="visible" id="glyph0-6">
<path style="stroke:none;" d="M 5.96875 -6.484375 L 4.921875 -6.40625 C 4.828125 -6.820312 4.695312 -7.125 4.53125 -7.3125 C 4.238281 -7.613281 3.882812 -7.765625 3.46875 -7.765625 C 3.132812 -7.765625 2.835938 -7.671875 2.578125 -7.484375 C 2.253906 -7.234375 1.992188 -6.875 1.796875 -6.40625 C 1.609375 -5.945312 1.507812 -5.289062 1.5 -4.4375 C 1.75 -4.820312 2.054688 -5.109375 2.421875 -5.296875 C 2.796875 -5.484375 3.1875 -5.578125 3.59375 -5.578125 C 4.289062 -5.578125 4.882812 -5.316406 5.375 -4.796875 C 5.875 -4.273438 6.125 -3.609375 6.125 -2.796875 C 6.125 -2.253906 6.003906 -1.75 5.765625 -1.28125 C 5.535156 -0.820312 5.21875 -0.46875 4.8125 -0.21875 C 4.40625 0.0195312 3.945312 0.140625 3.4375 0.140625 C 2.550781 0.140625 1.832031 -0.179688 1.28125 -0.828125 C 0.726562 -1.472656 0.453125 -2.535156 0.453125 -4.015625 C 0.453125 -5.679688 0.757812 -6.890625 1.375 -7.640625 C 1.90625 -8.296875 2.625 -8.625 3.53125 -8.625 C 4.207031 -8.625 4.757812 -8.429688 5.1875 -8.046875 C 5.625 -7.671875 5.882812 -7.148438 5.96875 -6.484375 Z M 1.671875 -2.78125 C 1.671875 -2.414062 1.742188 -2.066406 1.890625 -1.734375 C 2.046875 -1.410156 2.257812 -1.160156 2.53125 -0.984375 C 2.8125 -0.804688 3.109375 -0.71875 3.421875 -0.71875 C 3.859375 -0.71875 4.238281 -0.894531 4.5625 -1.25 C 4.882812 -1.613281 5.046875 -2.101562 5.046875 -2.71875 C 5.046875 -3.3125 4.882812 -3.78125 4.5625 -4.125 C 4.25 -4.46875 3.851562 -4.640625 3.375 -4.640625 C 2.894531 -4.640625 2.488281 -4.46875 2.15625 -4.125 C 1.832031 -3.78125 1.671875 -3.332031 1.671875 -2.78125 Z M 1.671875 -2.78125 "/>
</symbol>
<symbol overflow="visible" id="glyph0-7">
<path style="stroke:none;" d="M 2.125 -4.65625 C 1.6875 -4.820312 1.359375 -5.050781 1.140625 -5.34375 C 0.929688 -5.644531 0.828125 -6 0.828125 -6.40625 C 0.828125 -7.03125 1.050781 -7.554688 1.5 -7.984375 C 1.957031 -8.410156 2.554688 -8.625 3.296875 -8.625 C 4.046875 -8.625 4.648438 -8.40625 5.109375 -7.96875 C 5.566406 -7.53125 5.796875 -7 5.796875 -6.375 C 5.796875 -5.976562 5.691406 -5.632812 5.484375 -5.34375 C 5.273438 -5.050781 4.957031 -4.820312 4.53125 -4.65625 C 5.0625 -4.488281 5.460938 -4.210938 5.734375 -3.828125 C 6.003906 -3.441406 6.140625 -2.984375 6.140625 -2.453125 C 6.140625 -1.722656 5.878906 -1.109375 5.359375 -0.609375 C 4.847656 -0.109375 4.164062 0.140625 3.3125 0.140625 C 2.46875 0.140625 1.785156 -0.109375 1.265625 -0.609375 C 0.742188 -1.109375 0.484375 -1.734375 0.484375 -2.484375 C 0.484375 -3.046875 0.625 -3.515625 0.90625 -3.890625 C 1.195312 -4.265625 1.601562 -4.519531 2.125 -4.65625 Z M 1.90625 -6.453125 C 1.90625 -6.046875 2.035156 -5.710938 2.296875 -5.453125 C 2.566406 -5.191406 2.910156 -5.0625 3.328125 -5.0625 C 3.734375 -5.0625 4.066406 -5.1875 4.328125 -5.4375 C 4.585938 -5.695312 4.71875 -6.015625 4.71875 -6.390625 C 4.71875 -6.773438 4.582031 -7.097656 4.3125 -7.359375 C 4.039062 -7.628906 3.707031 -7.765625 3.3125 -7.765625 C 2.90625 -7.765625 2.566406 -7.632812 2.296875 -7.375 C 2.035156 -7.113281 1.90625 -6.804688 1.90625 -6.453125 Z M 1.578125 -2.484375 C 1.578125 -2.179688 1.644531 -1.890625 1.78125 -1.609375 C 1.925781 -1.328125 2.140625 -1.109375 2.421875 -0.953125 C 2.703125 -0.796875 3.003906 -0.71875 3.328125 -0.71875 C 3.828125 -0.71875 4.238281 -0.878906 4.5625 -1.203125 C 4.894531 -1.523438 5.0625 -1.9375 5.0625 -2.4375 C 5.0625 -2.945312 4.894531 -3.367188 4.5625 -3.703125 C 4.226562 -4.035156 3.804688 -4.203125 3.296875 -4.203125 C 2.796875 -4.203125 2.382812 -4.035156 2.0625 -3.703125 C 1.738281 -3.378906 1.578125 -2.972656 1.578125 -2.484375 Z M 1.578125 -2.484375 "/>
</symbol>
<symbol overflow="visible" id="glyph0-8">
<path style="stroke:none;" d="M 0.65625 -1.984375 L 1.671875 -2.078125 C 1.753906 -1.597656 1.914062 -1.25 2.15625 -1.03125 C 2.40625 -0.820312 2.71875 -0.71875 3.09375 -0.71875 C 3.414062 -0.71875 3.695312 -0.789062 3.9375 -0.9375 C 4.1875 -1.09375 4.390625 -1.289062 4.546875 -1.53125 C 4.703125 -1.78125 4.832031 -2.113281 4.9375 -2.53125 C 5.039062 -2.957031 5.09375 -3.390625 5.09375 -3.828125 C 5.09375 -3.878906 5.09375 -3.953125 5.09375 -4.046875 C 4.882812 -3.710938 4.597656 -3.4375 4.234375 -3.21875 C 3.867188 -3.007812 3.472656 -2.90625 3.046875 -2.90625 C 2.328125 -2.90625 1.722656 -3.160156 1.234375 -3.671875 C 0.742188 -4.191406 0.5 -4.875 0.5 -5.71875 C 0.5 -6.59375 0.753906 -7.296875 1.265625 -7.828125 C 1.785156 -8.359375 2.429688 -8.625 3.203125 -8.625 C 3.753906 -8.625 4.257812 -8.472656 4.71875 -8.171875 C 5.1875 -7.867188 5.539062 -7.4375 5.78125 -6.875 C 6.019531 -6.320312 6.140625 -5.519531 6.140625 -4.46875 C 6.140625 -3.375 6.019531 -2.5 5.78125 -1.84375 C 5.550781 -1.195312 5.195312 -0.703125 4.71875 -0.359375 C 4.25 -0.0234375 3.703125 0.140625 3.078125 0.140625 C 2.398438 0.140625 1.847656 -0.0390625 1.421875 -0.40625 C 0.992188 -0.78125 0.738281 -1.304688 0.65625 -1.984375 Z M 4.96875 -5.78125 C 4.96875 -6.382812 4.804688 -6.863281 4.484375 -7.21875 C 4.171875 -7.570312 3.785156 -7.75 3.328125 -7.75 C 2.859375 -7.75 2.445312 -7.554688 2.09375 -7.171875 C 1.75 -6.796875 1.578125 -6.300781 1.578125 -5.6875 C 1.578125 -5.144531 1.742188 -4.703125 2.078125 -4.359375 C 2.410156 -4.015625 2.816406 -3.84375 3.296875 -3.84375 C 3.785156 -3.84375 4.1875 -4.015625 4.5 -4.359375 C 4.8125 -4.703125 4.96875 -5.175781 4.96875 -5.78125 Z M 4.96875 -5.78125 "/>
</symbol>
<symbol overflow="visible" id="glyph0-9">
<path style="stroke:none;" d="M 0.5625 -7.46875 L 0.5625 -8.484375 L 6.125 -8.484375 L 6.125 -7.65625 C 5.582031 -7.070312 5.039062 -6.296875 4.5 -5.328125 C 3.96875 -4.367188 3.554688 -3.378906 3.265625 -2.359375 C 3.046875 -1.640625 2.910156 -0.851562 2.859375 0 L 1.765625 0 C 1.773438 -0.675781 1.90625 -1.492188 2.15625 -2.453125 C 2.414062 -3.410156 2.78125 -4.332031 3.25 -5.21875 C 3.726562 -6.101562 4.238281 -6.851562 4.78125 -7.46875 Z M 0.5625 -7.46875 "/>
</symbol>
<symbol overflow="visible" id="glyph0-10">
<path style="stroke:none;" d="M 4.46875 0 L 3.421875 0 L 3.421875 -6.71875 C 3.160156 -6.476562 2.820312 -6.234375 2.40625 -5.984375 C 2 -5.742188 1.632812 -5.566406 1.3125 -5.453125 L 1.3125 -6.46875 C 1.894531 -6.75 2.40625 -7.082031 2.84375 -7.46875 C 3.289062 -7.863281 3.609375 -8.25 3.796875 -8.625 L 4.46875 -8.625 Z M 4.46875 0 "/>
</symbol>
<symbol overflow="visible" id="glyph0-11">
<path style="stroke:none;" d="M 0.578125 -4.1875 C 0.578125 -5.613281 0.957031 -6.726562 1.71875 -7.53125 C 2.488281 -8.34375 3.476562 -8.75 4.6875 -8.75 C 5.488281 -8.75 6.207031 -8.554688 6.84375 -8.171875 C 7.476562 -7.796875 7.960938 -7.269531 8.296875 -6.59375 C 8.628906 -5.914062 8.796875 -5.144531 8.796875 -4.28125 C 8.796875 -3.414062 8.617188 -2.640625 8.265625 -1.953125 C 7.910156 -1.265625 7.410156 -0.742188 6.765625 -0.390625 C 6.128906 -0.0351562 5.4375 0.140625 4.6875 0.140625 C 3.875 0.140625 3.148438 -0.0507812 2.515625 -0.4375 C 1.878906 -0.832031 1.394531 -1.363281 1.0625 -2.03125 C 0.738281 -2.707031 0.578125 -3.425781 0.578125 -4.1875 Z M 1.75 -4.171875 C 1.75 -3.128906 2.023438 -2.3125 2.578125 -1.71875 C 3.140625 -1.125 3.84375 -0.828125 4.6875 -0.828125 C 5.539062 -0.828125 6.242188 -1.125 6.796875 -1.71875 C 7.347656 -2.320312 7.625 -3.179688 7.625 -4.296875 C 7.625 -4.992188 7.503906 -5.601562 7.265625 -6.125 C 7.035156 -6.644531 6.691406 -7.046875 6.234375 -7.328125 C 5.773438 -7.617188 5.265625 -7.765625 4.703125 -7.765625 C 3.898438 -7.765625 3.207031 -7.488281 2.625 -6.9375 C 2.039062 -6.382812 1.75 -5.460938 1.75 -4.171875 Z M 1.75 -4.171875 "/>
</symbol>
<symbol overflow="visible" id="glyph0-12">
<path style="stroke:none;" d="M 3.109375 0 L 3.109375 -7.578125 L 0.28125 -7.578125 L 0.28125 -8.59375 L 7.09375 -8.59375 L 7.09375 -7.578125 L 4.25 -7.578125 L 4.25 0 Z M 3.109375 0 "/>
</symbol>
<symbol overflow="visible" id="glyph0-13">
<path style="stroke:none;" d="M 6.5625 -8.59375 L 7.703125 -8.59375 L 7.703125 -3.625 C 7.703125 -2.757812 7.601562 -2.070312 7.40625 -1.5625 C 7.207031 -1.0625 6.851562 -0.648438 6.34375 -0.328125 C 5.832031 -0.015625 5.164062 0.140625 4.34375 0.140625 C 3.539062 0.140625 2.878906 0.00390625 2.359375 -0.265625 C 1.847656 -0.546875 1.484375 -0.945312 1.265625 -1.46875 C 1.046875 -2 0.9375 -2.71875 0.9375 -3.625 L 0.9375 -8.59375 L 2.078125 -8.59375 L 2.078125 -3.640625 C 2.078125 -2.890625 2.144531 -2.335938 2.28125 -1.984375 C 2.425781 -1.628906 2.664062 -1.351562 3 -1.15625 C 3.34375 -0.96875 3.757812 -0.875 4.25 -0.875 C 5.082031 -0.875 5.675781 -1.0625 6.03125 -1.4375 C 6.382812 -1.820312 6.5625 -2.554688 6.5625 -3.640625 Z M 6.5625 -8.59375 "/>
</symbol>
<symbol overflow="visible" id="glyph0-14">
<path style="stroke:none;" d="M -0.1875 2.390625 L -0.1875 1.625 L 6.8125 1.625 L 6.8125 2.390625 Z M -0.1875 2.390625 "/>
</symbol>
<symbol overflow="visible" id="glyph0-15">
<path style="stroke:none;" d="M 0.5 -2.265625 L 1.5625 -2.40625 C 1.675781 -1.8125 1.878906 -1.378906 2.171875 -1.109375 C 2.460938 -0.847656 2.816406 -0.71875 3.234375 -0.71875 C 3.734375 -0.71875 4.15625 -0.890625 4.5 -1.234375 C 4.84375 -1.578125 5.015625 -2.003906 5.015625 -2.515625 C 5.015625 -2.992188 4.851562 -3.390625 4.53125 -3.703125 C 4.21875 -4.023438 3.816406 -4.1875 3.328125 -4.1875 C 3.128906 -4.1875 2.878906 -4.144531 2.578125 -4.0625 L 2.703125 -5 C 2.773438 -4.988281 2.832031 -4.984375 2.875 -4.984375 C 3.320312 -4.984375 3.722656 -5.097656 4.078125 -5.328125 C 4.441406 -5.566406 4.625 -5.929688 4.625 -6.421875 C 4.625 -6.804688 4.492188 -7.125 4.234375 -7.375 C 3.972656 -7.632812 3.632812 -7.765625 3.21875 -7.765625 C 2.8125 -7.765625 2.46875 -7.632812 2.1875 -7.375 C 1.914062 -7.113281 1.742188 -6.726562 1.671875 -6.21875 L 0.609375 -6.40625 C 0.734375 -7.101562 1.023438 -7.644531 1.484375 -8.03125 C 1.941406 -8.425781 2.507812 -8.625 3.1875 -8.625 C 3.65625 -8.625 4.085938 -8.519531 4.484375 -8.3125 C 4.878906 -8.113281 5.179688 -7.84375 5.390625 -7.5 C 5.597656 -7.15625 5.703125 -6.785156 5.703125 -6.390625 C 5.703125 -6.023438 5.601562 -5.6875 5.40625 -5.375 C 5.207031 -5.070312 4.914062 -4.832031 4.53125 -4.65625 C 5.03125 -4.539062 5.421875 -4.296875 5.703125 -3.921875 C 5.984375 -3.554688 6.125 -3.09375 6.125 -2.53125 C 6.125 -1.78125 5.847656 -1.144531 5.296875 -0.625 C 4.753906 -0.101562 4.066406 0.15625 3.234375 0.15625 C 2.484375 0.15625 1.859375 -0.0664062 1.359375 -0.515625 C 0.859375 -0.972656 0.570312 -1.554688 0.5 -2.265625 Z M 0.5 -2.265625 "/>
</symbol>
</g>
</defs>
<g id="surface4631">
<rect x="0" y="0" width="504" height="504" style="fill:rgb(100%,100%,100%);fill-opacity:1;stroke:none;"/>
<path style="fill:none;stroke-width:1.125;stroke-linecap:round;stroke-linejoin:round;stroke:rgb(100%,0%,0%);stroke-opacity:1;stroke-dasharray:4.5,4.5;stroke-miterlimit:10;" d="M 404.203125 233.070312 L 237.730469 103.640625 "/>
<path style="fill:none;stroke-width:1.125;stroke-linecap:round;stroke-linejoin:round;stroke:rgb(0%,0%,100%);stroke-opacity:1;stroke-dasharray:4.5,4.5;stroke-miterlimit:10;" d="M 340.070312 126.34375 L 132.164062 172.605469 "/>
<path style="fill:none;stroke-width:1.125;stroke-linecap:round;stroke-linejoin:round;stroke:rgb(100%,0%,0%);stroke-opacity:1;stroke-dasharray:4.5,4.5;stroke-miterlimit:10;" d="M 343.636719 133.921875 L 128.597656 301.113281 "/>
<path style="fill:none;stroke-width:1.125;stroke-linecap:round;stroke-linejoin:round;stroke:rgb(0%,0%,100%);stroke-opacity:1;stroke-dasharray:4.5,4.5;stroke-miterlimit:10;" d="M 358.726562 141.304688 L 358.726562 348.296875 "/>
<path style="fill:none;stroke-width:1.125;stroke-linecap:round;stroke-linejoin:round;stroke:rgb(100%,0%,0%);stroke-opacity:1;stroke-dasharray:4.5,4.5;stroke-miterlimit:10;" d="M 113.511719 195.871094 L 113.511719 293.730469 "/>
<path style="fill:none;stroke-width:1.125;stroke-linecap:round;stroke-linejoin:round;stroke:rgb(100%,0%,0%);stroke-opacity:1;stroke-dasharray:4.5,4.5;stroke-miterlimit:10;" d="M 121.976562 193.894531 L 214.179688 380.554688 "/>
<path style="fill:none;stroke-width:1.125;stroke-linecap:round;stroke-linejoin:round;stroke:rgb(0%,0%,100%);stroke-opacity:1;stroke-dasharray:4.5,4.5;stroke-miterlimit:10;" d="M 128.597656 188.488281 L 343.636719 355.675781 "/>
<path style="fill:none;stroke-width:1.125;stroke-linecap:round;stroke-linejoin:round;stroke:rgb(100%,0%,0%);stroke-opacity:1;stroke-dasharray:4.5,4.5;stroke-miterlimit:10;" d="M 241.296875 393.539062 L 340.070312 371.558594 "/>
<g style="fill:rgb(100%,0%,0%);fill-opacity:1;">
  <use xlink:href="#glyph0-1" x="334.710938" y="193.789062"/>
  <use xlink:href="#glyph0-2" x="338.707031" y="193.789062"/>
  <use xlink:href="#glyph0-3" x="345.380859" y="193.789062"/>
  <use xlink:href="#glyph0-4" x="348.714844" y="193.789062"/>
  <use xlink:href="#glyph0-5" x="355.388672" y="193.789062"/>
</g>
<g style="fill:rgb(0%,0%,100%);fill-opacity:1;">
  <use xlink:href="#glyph0-2" x="262.269531" y="145.628906"/>
  <use xlink:href="#glyph0-3" x="268.943359" y="145.628906"/>
  <use xlink:href="#glyph0-6" x="272.277344" y="145.628906"/>
</g>
<g style="fill:rgb(100%,0%,0%);fill-opacity:1;">
  <use xlink:href="#glyph0-1" x="261.457031" y="193.515625"/>
  <use xlink:href="#glyph0-2" x="265.453125" y="193.515625"/>
  <use xlink:href="#glyph0-3" x="272.126953" y="193.515625"/>
  <use xlink:href="#glyph0-6" x="275.460938" y="193.515625"/>
</g>
<g style="fill:rgb(0%,0%,100%);fill-opacity:1;">
  <use xlink:href="#glyph0-2" x="346.726562" y="214.164062"/>
  <use xlink:href="#glyph0-3" x="353.400391" y="214.164062"/>
  <use xlink:href="#glyph0-4" x="356.734375" y="214.164062"/>
  <use xlink:href="#glyph0-7" x="363.408203" y="214.164062"/>
</g>
<g style="fill:rgb(100%,0%,0%);fill-opacity:1;">
  <use xlink:href="#glyph0-1" x="99.511719" y="232.351562"/>
  <use xlink:href="#glyph0-2" x="103.507812" y="232.351562"/>
  <use xlink:href="#glyph0-3" x="110.181641" y="232.351562"/>
  <use xlink:href="#glyph0-6" x="113.515625" y="232.351562"/>
  <use xlink:href="#glyph0-8" x="120.189453" y="232.351562"/>
</g>
<g style="fill:rgb(100%,0%,0%);fill-opacity:1;">
  <use xlink:href="#glyph0-1" x="138.710938" y="259.976562"/>
  <use xlink:href="#glyph0-2" x="142.707031" y="259.976562"/>
  <use xlink:href="#glyph0-3" x="149.380859" y="259.976562"/>
  <use xlink:href="#glyph0-4" x="152.714844" y="259.976562"/>
  <use xlink:href="#glyph0-9" x="159.388672" y="259.976562"/>
</g>
<g style="fill:rgb(0%,0%,100%);fill-opacity:1;">
  <use xlink:href="#glyph0-2" x="188.277344" y="248.082031"/>
  <use xlink:href="#glyph0-3" x="194.951172" y="248.082031"/>
  <use xlink:href="#glyph0-6" x="198.285156" y="248.082031"/>
  <use xlink:href="#glyph0-10" x="204.958984" y="248.082031"/>
</g>
<g style="fill:rgb(100%,0%,0%);fill-opacity:1;">
  <use xlink:href="#glyph0-1" x="260.222656" y="390.074219"/>
  <use xlink:href="#glyph0-2" x="264.21875" y="390.074219"/>
  <use xlink:href="#glyph0-3" x="270.892578" y="390.074219"/>
  <use xlink:href="#glyph0-4" x="274.226562" y="390.074219"/>
  <use xlink:href="#glyph0-4" x="280.900391" y="390.074219"/>
</g>
<path style="fill-rule:nonzero;fill:rgb(82.745098%,82.745098%,82.745098%);fill-opacity:1;stroke-width:0.75;stroke-linecap:round;stroke-linejoin:round;stroke:rgb(0%,0%,0%);stroke-opacity:1;stroke-miterlimit:10;" d="M 438.398438 244.800781 C 438.398438 255.355469 429.84375 263.910156 419.289062 263.910156 C 408.734375 263.910156 400.179688 255.355469 400.179688 244.800781 C 400.179688 234.246094 408.734375 225.6875 419.289062 225.6875 C 429.84375 225.6875 438.398438 234.246094 438.398438 244.800781 "/>
<path style="fill-rule:nonzero;fill:rgb(82.745098%,82.745098%,82.745098%);fill-opacity:1;stroke-width:0.75;stroke-linecap:round;stroke-linejoin:round;stroke:rgb(0%,0%,0%);stroke-opacity:1;stroke-miterlimit:10;" d="M 377.835938 122.191406 C 377.835938 132.746094 369.28125 141.304688 358.726562 141.304688 C 348.171875 141.304688 339.613281 132.746094 339.613281 122.191406 C 339.613281 111.636719 348.171875 103.082031 358.726562 103.082031 C 369.28125 103.082031 377.835938 111.636719 377.835938 122.191406 "/>
<path style="fill-rule:nonzero;fill:rgb(82.745098%,82.745098%,82.745098%);fill-opacity:1;stroke-width:0.75;stroke-linecap:round;stroke-linejoin:round;stroke:rgb(0%,0%,0%);stroke-opacity:1;stroke-miterlimit:10;" d="M 241.753906 91.910156 C 241.753906 102.464844 233.195312 111.023438 222.640625 111.023438 C 212.085938 111.023438 203.53125 102.464844 203.53125 91.910156 C 203.53125 81.355469 212.085938 72.800781 222.640625 72.800781 C 233.195312 72.800781 241.753906 81.355469 241.753906 91.910156 "/>
<path style="fill-rule:nonzero;fill:rgb(82.745098%,82.745098%,82.745098%);fill-opacity:1;stroke-width:0.75;stroke-linecap:round;stroke-linejoin:round;stroke:rgb(0%,0%,0%);stroke-opacity:1;stroke-miterlimit:10;" d="M 132.621094 176.757812 C 132.621094 187.3125 124.066406 195.871094 113.511719 195.871094 C 102.957031 195.871094 94.398438 187.3125 94.398438 176.757812 C 94.398438 166.203125 102.957031 157.648438 113.511719 157.648438 C 124.066406 157.648438 132.621094 166.203125 132.621094 176.757812 "/>
<path style="fill-rule:nonzero;fill:rgb(82.745098%,82.745098%,82.745098%);fill-opacity:1;stroke-width:0.75;stroke-linecap:round;stroke-linejoin:round;stroke:rgb(0%,0%,0%);stroke-opacity:1;stroke-miterlimit:10;" d="M 132.621094 312.84375 C 132.621094 323.398438 124.066406 331.953125 113.511719 331.953125 C 102.957031 331.953125 94.398438 323.398438 94.398438 312.84375 C 94.398438 302.289062 102.957031 293.730469 113.511719 293.730469 C 124.066406 293.730469 132.621094 302.289062 132.621094 312.84375 "/>
<path style="fill-rule:nonzero;fill:rgb(82.745098%,82.745098%,82.745098%);fill-opacity:1;stroke-width:0.75;stroke-linecap:round;stroke-linejoin:round;stroke:rgb(0%,0%,0%);stroke-opacity:1;stroke-miterlimit:10;" d="M 241.753906 397.6875 C 241.753906 408.242188 233.195312 416.800781 222.640625 416.800781 C 212.085938 416.800781 203.53125 408.242188 203.53125 397.6875 C 203.53125 387.132812 212.085938 378.578125 222.640625 378.578125 C 233.195312 378.578125 241.753906 387.132812 241.753906 397.6875 "/>
<path style="fill-rule:nonzero;fill:rgb(82.745098%,82.745098%,82.745098%);fill-opacity:1;stroke-width:0.75;stroke-linecap:round;stroke-linejoin:round;stroke:rgb(0%,0%,0%);stroke-opacity:1;stroke-miterlimit:10;" d="M 377.835938 367.40625 C 377.835938 377.960938 369.28125 386.519531 358.726562 386.519531 C 348.171875 386.519531 339.613281 377.960938 339.613281 367.40625 C 339.613281 356.851562 348.171875 348.296875 358.726562 348.296875 C 369.28125 348.296875 377.835938 356.851562 377.835938 367.40625 "/>
<g style="fill:rgb(0%,0%,0%);fill-opacity:1;">
  <use xlink:href="#glyph0-11" x="399.789062" y="247.664062"/>
  <use xlink:href="#glyph0-12" x="409.123047" y="247.664062"/>
  <use xlink:href="#glyph0-13" x="416.453125" y="247.664062"/>
  <use xlink:href="#glyph0-14" x="425.119141" y="247.664062"/>
  <use xlink:href="#glyph0-10" x="431.792969" y="247.664062"/>
</g>
<g style="fill:rgb(0%,0%,0%);fill-opacity:1;">
  <use xlink:href="#glyph0-11" x="339.226562" y="125.054688"/>
  <use xlink:href="#glyph0-12" x="348.560547" y="125.054688"/>
  <use xlink:href="#glyph0-13" x="355.890625" y="125.054688"/>
  <use xlink:href="#glyph0-14" x="364.556641" y="125.054688"/>
  <use xlink:href="#glyph0-5" x="371.230469" y="125.054688"/>
</g>
<g style="fill:rgb(0%,0%,0%);fill-opacity:1;">
  <use xlink:href="#glyph0-11" x="203.140625" y="94.773438"/>
  <use xlink:href="#glyph0-12" x="212.474609" y="94.773438"/>
  <use xlink:href="#glyph0-13" x="219.804688" y="94.773438"/>
  <use xlink:href="#glyph0-14" x="228.470703" y="94.773438"/>
  <use xlink:href="#glyph0-15" x="235.144531" y="94.773438"/>
</g>
<g style="fill:rgb(0%,0%,0%);fill-opacity:1;">
  <use xlink:href="#glyph0-11" x="94.011719" y="179.621094"/>
  <use xlink:href="#glyph0-12" x="103.345703" y="179.621094"/>
  <use xlink:href="#glyph0-13" x="110.675781" y="179.621094"/>
  <use xlink:href="#glyph0-14" x="119.341797" y="179.621094"/>
  <use xlink:href="#glyph0-6" x="126.015625" y="179.621094"/>
</g>
<g style="fill:rgb(0%,0%,0%);fill-opacity:1;">
  <use xlink:href="#glyph0-11" x="94.011719" y="315.707031"/>
  <use xlink:href="#glyph0-12" x="103.345703" y="315.707031"/>
  <use xlink:href="#glyph0-13" x="110.675781" y="315.707031"/>
  <use xlink:href="#glyph0-14" x="119.341797" y="315.707031"/>
  <use xlink:href="#glyph0-9" x="126.015625" y="315.707031"/>
</g>
<g style="fill:rgb(0%,0%,0%);fill-opacity:1;">
  <use xlink:href="#glyph0-11" x="203.140625" y="400.550781"/>
  <use xlink:href="#glyph0-12" x="212.474609" y="400.550781"/>
  <use xlink:href="#glyph0-13" x="219.804688" y="400.550781"/>
  <use xlink:href="#glyph0-14" x="228.470703" y="400.550781"/>
  <use xlink:href="#glyph0-7" x="235.144531" y="400.550781"/>
</g>
<g style="fill:rgb(0%,0%,0%);fill-opacity:1;">
  <use xlink:href="#glyph0-11" x="339.226562" y="370.269531"/>
  <use xlink:href="#glyph0-12" x="348.560547" y="370.269531"/>
  <use xlink:href="#glyph0-13" x="355.890625" y="370.269531"/>
  <use xlink:href="#glyph0-14" x="364.556641" y="370.269531"/>
  <use xlink:href="#glyph0-8" x="371.230469" y="370.269531"/>
</g>
</g>
</svg>
