<?xml version="1.0" encoding="UTF-8"?>
<svg xmlns="http://www.w3.org/2000/svg" xmlns:xlink="http://www.w3.org/1999/xlink" width="730pt" height="396pt" viewBox="0 0 730 396" version="1.1">
<defs>
<g>
<symbol overflow="visible" id="glyph0-0">
<path style="stroke:none;" d=""/>
</symbol>
<symbol overflow="visible" id="glyph0-1">
<path style="stroke:none;" d="M 3.40625 -2.875 L 3.40625 -3.75 L 0.546875 -3.75 L 0.546875 -2.875 Z M 3.40625 -2.875 "/>
</symbol>
<symbol overflow="visible" id="glyph0-2">
<path style="stroke:none;" d="M 6.125 -6.015625 C 6.125 -7.453125 5.015625 -8.515625 3.40625 -8.515625 C 1.671875 -8.515625 0.65625 -7.625 0.59375 -5.5625 L 1.65625 -5.5625 C 1.734375 -6.984375 2.328125 -7.578125 3.375 -7.578125 C 4.328125 -7.578125 5.046875 -6.90625 5.046875 -5.984375 C 5.046875 -5.3125 4.65625 -4.734375 3.90625 -4.3125 L 2.796875 -3.6875 C 1.015625 -2.671875 0.5 -1.875 0.40625 0 L 6.078125 0 L 6.078125 -1.046875 L 1.59375 -1.046875 C 1.703125 -1.734375 2.09375 -2.1875 3.125 -2.796875 L 4.328125 -3.4375 C 5.515625 -4.078125 6.125 -4.96875 6.125 -6.015625 Z M 6.125 -6.015625 "/>
</symbol>
<symbol overflow="visible" id="glyph0-3">
<path style="stroke:none;" d="M 6.078125 -4.09375 C 6.078125 -7.046875 5.140625 -8.515625 3.296875 -8.515625 C 1.46875 -8.515625 0.515625 -7.015625 0.515625 -4.15625 C 0.515625 -1.296875 1.46875 0.1875 3.296875 0.1875 C 5.09375 0.1875 6.078125 -1.296875 6.078125 -4.09375 Z M 5 -4.1875 C 5 -1.78125 4.453125 -0.703125 3.28125 -0.703125 C 2.15625 -0.703125 1.59375 -1.828125 1.59375 -4.15625 C 1.59375 -6.484375 2.15625 -7.578125 3.296875 -7.578125 C 4.4375 -7.578125 5 -6.46875 5 -4.1875 Z M 5 -4.1875 "/>
</symbol>
<symbol overflow="visible" id="glyph0-4">
<path style="stroke:none;" d="M 6.234375 -2.046875 L 6.234375 -2.984375 L 4.984375 -2.984375 L 4.984375 -8.515625 L 4.203125 -8.515625 L 0.34375 -3.15625 L 0.34375 -2.046875 L 3.921875 -2.046875 L 3.921875 0 L 4.984375 0 L 4.984375 -2.046875 Z M 3.921875 -2.984375 L 1.265625 -2.984375 L 3.921875 -6.703125 Z M 3.921875 -2.984375 "/>
</symbol>
<symbol overflow="visible" id="glyph0-5">
<path style="stroke:none;" d="M 8.125 -3.1875 L 6.96875 -3.1875 C 6.703125 -1.53125 6.015625 -0.765625 4.53125 -0.765625 C 2.796875 -0.765625 1.6875 -2.09375 1.6875 -4.28125 C 1.6875 -6.53125 2.75 -7.984375 4.4375 -7.984375 C 5.8125 -7.984375 6.53125 -7.375 6.796875 -6.03125 L 7.9375 -6.03125 C 7.59375 -7.953125 6.484375 -8.96875 4.578125 -8.96875 C 1.921875 -8.96875 0.578125 -6.828125 0.578125 -4.265625 C 0.578125 -1.71875 1.953125 0.21875 4.53125 0.21875 C 6.65625 0.21875 7.859375 -0.90625 8.125 -3.1875 Z M 8.125 -3.1875 "/>
</symbol>
<symbol overflow="visible" id="glyph0-6">
<path style="stroke:none;" d="M 7.84375 0 L 4.765625 -8.75 L 3.328125 -8.75 L 0.203125 0 L 1.390625 0 L 2.3125 -2.625 L 5.6875 -2.625 L 6.59375 0 Z M 5.375 -3.5625 L 2.59375 -3.5625 L 4.03125 -7.546875 Z M 5.375 -3.5625 "/>
</symbol>
<symbol overflow="visible" id="glyph0-7">
<path style="stroke:none;" d="M 4.15625 0 L 4.15625 -8.515625 L 3.46875 -8.515625 C 3.09375 -7.203125 2.859375 -7.015625 1.21875 -6.8125 L 1.21875 -6.0625 L 3.109375 -6.0625 L 3.109375 0 Z M 4.15625 0 "/>
</symbol>
<symbol overflow="visible" id="glyph1-0">
<path style="stroke:none;" d=""/>
</symbol>
<symbol overflow="visible" id="glyph1-1">
<path style="stroke:none;" d="M -2.875 -3.40625 L -3.75 -3.40625 L -3.75 -0.546875 L -2.875 -0.546875 Z M -2.875 -3.40625 "/>
</symbol>
<symbol overflow="visible" id="glyph1-2">
<path style="stroke:none;" d="M 0 -4.15625 L -8.515625 -4.15625 L -8.515625 -3.46875 C -7.203125 -3.09375 -7.015625 -2.859375 -6.8125 -1.21875 L -6.0625 -1.21875 L -6.0625 -3.109375 L 0 -3.109375 Z M 0 -4.15625 "/>
</symbol>
<symbol overflow="visible" id="glyph1-3">
<path style="stroke:none;" d="M 0 -2.296875 L -1.25 -2.296875 L -1.25 -1.046875 L 0 -1.046875 Z M 0 -2.296875 "/>
</symbol>
<symbol overflow="visible" id="glyph1-4">
<path style="stroke:none;" d="M -2.8125 -6.15625 C -4.5 -6.15625 -5.609375 -5.046875 -5.609375 -3.40625 C -5.609375 -2.8125 -5.453125 -2.328125 -5.09375 -1.84375 L -7.28125 -2.171875 L -7.28125 -5.71875 L -8.328125 -5.71875 L -8.328125 -1.3125 L -3.875 -0.6875 L -3.875 -1.65625 C -4.46875 -2.140625 -4.671875 -2.5625 -4.671875 -3.21875 C -4.671875 -4.359375 -3.9375 -5.078125 -2.671875 -5.078125 C -1.453125 -5.078125 -0.75 -4.375 -0.75 -3.21875 C -0.75 -2.296875 -1.21875 -1.734375 -2.1875 -1.46875 L -2.1875 -0.421875 C -0.484375 -0.765625 0.1875 -1.734375 0.1875 -3.234375 C 0.1875 -4.953125 -1.015625 -6.15625 -2.8125 -6.15625 Z M -2.8125 -6.15625 "/>
</symbol>
<symbol overflow="visible" id="glyph1-5">
<path style="stroke:none;" d="M -4.09375 -6.078125 C -7.046875 -6.078125 -8.515625 -5.140625 -8.515625 -3.296875 C -8.515625 -1.46875 -7.015625 -0.515625 -4.15625 -0.515625 C -1.296875 -0.515625 0.1875 -1.46875 0.1875 -3.296875 C 0.1875 -5.09375 -1.296875 -6.078125 -4.09375 -6.078125 Z M -4.1875 -5 C -1.78125 -5 -0.703125 -4.453125 -0.703125 -3.28125 C -0.703125 -2.15625 -1.828125 -1.59375 -4.15625 -1.59375 C -6.484375 -1.59375 -7.578125 -2.15625 -7.578125 -3.296875 C -7.578125 -4.4375 -6.46875 -5 -4.1875 -5 Z M -4.1875 -5 "/>
</symbol>
<symbol overflow="visible" id="glyph1-6">
<path style="stroke:none;" d="M -3.1875 -8.125 L -3.1875 -6.96875 C -1.53125 -6.703125 -0.765625 -6.015625 -0.765625 -4.53125 C -0.765625 -2.796875 -2.09375 -1.6875 -4.28125 -1.6875 C -6.53125 -1.6875 -7.984375 -2.75 -7.984375 -4.4375 C -7.984375 -5.8125 -7.375 -6.53125 -6.03125 -6.796875 L -6.03125 -7.9375 C -7.953125 -7.59375 -8.96875 -6.484375 -8.96875 -4.578125 C -8.96875 -1.921875 -6.828125 -0.578125 -4.265625 -0.578125 C -1.71875 -0.578125 0.21875 -1.953125 0.21875 -4.53125 C 0.21875 -6.65625 -0.90625 -7.859375 -3.1875 -8.125 Z M -3.1875 -8.125 "/>
</symbol>
<symbol overflow="visible" id="glyph1-7">
<path style="stroke:none;" d="M 0 -7.84375 L -8.75 -4.765625 L -8.75 -3.328125 L 0 -0.203125 L 0 -1.390625 L -2.625 -2.3125 L -2.625 -5.6875 L 0 -6.59375 Z M -3.5625 -5.375 L -3.5625 -2.59375 L -7.546875 -4.03125 Z M -3.5625 -5.375 "/>
</symbol>
<symbol overflow="visible" id="glyph1-8">
<path style="stroke:none;" d="M -6.015625 -6.125 C -7.453125 -6.125 -8.515625 -5.015625 -8.515625 -3.40625 C -8.515625 -1.671875 -7.625 -0.65625 -5.5625 -0.59375 L -5.5625 -1.65625 C -6.984375 -1.734375 -7.578125 -2.328125 -7.578125 -3.375 C -7.578125 -4.328125 -6.90625 -5.046875 -5.984375 -5.046875 C -5.3125 -5.046875 -4.734375 -4.65625 -4.3125 -3.90625 L -3.6875 -2.796875 C -2.671875 -1.015625 -1.875 -0.5 0 -0.40625 L 0 -6.078125 L -1.046875 -6.078125 L -1.046875 -1.59375 C -1.734375 -1.703125 -2.1875 -2.09375 -2.796875 -3.125 L -3.4375 -4.328125 C -4.078125 -5.515625 -4.96875 -6.125 -6.015625 -6.125 Z M -6.015625 -6.125 "/>
</symbol>
<symbol overflow="visible" id="glyph2-0">
<path style="stroke:none;" d=""/>
</symbol>
<symbol overflow="visible" id="glyph2-1">
<path style="stroke:none;" d="M 4.484375 0 L 4.484375 -0.6875 L 1.453125 -0.6875 L 1.453125 -6.125 L 0.671875 -6.125 L 0.671875 0 Z M 4.484375 0 "/>
</symbol>
<symbol overflow="visible" id="glyph2-2">
<path style="stroke:none;" d="M 4.5 -0.015625 L 4.5 -0.546875 C 4.421875 -0.53125 4.390625 -0.53125 4.34375 -0.53125 C 4.109375 -0.53125 3.96875 -0.65625 3.96875 -0.875 L 3.96875 -3.328125 C 3.96875 -4.109375 3.390625 -4.53125 2.3125 -4.53125 C 1.25 -4.53125 0.59375 -4.125 0.546875 -3.109375 L 1.25 -3.109375 C 1.3125 -3.640625 1.625 -3.890625 2.28125 -3.890625 C 2.921875 -3.890625 3.265625 -3.640625 3.265625 -3.234375 L 3.265625 -3.046875 C 3.265625 -2.75 3.09375 -2.625 2.53125 -2.5625 C 1.546875 -2.421875 1.390625 -2.390625 1.125 -2.28125 C 0.609375 -2.078125 0.359375 -1.6875 0.359375 -1.140625 C 0.359375 -0.34375 0.90625 0.125 1.796875 0.125 C 2.359375 0.125 2.90625 -0.109375 3.296875 -0.515625 C 3.375 -0.1875 3.671875 0.0625 4.015625 0.0625 C 4.15625 0.0625 4.265625 0.046875 4.5 -0.015625 Z M 3.265625 -1.515625 C 3.265625 -0.890625 2.625 -0.484375 1.953125 -0.484375 C 1.40625 -0.484375 1.078125 -0.6875 1.078125 -1.15625 C 1.078125 -1.625 1.390625 -1.828125 2.140625 -1.9375 C 2.890625 -2.03125 3.03125 -2.0625 3.265625 -2.171875 Z M 3.265625 -1.515625 "/>
</symbol>
<symbol overflow="visible" id="glyph2-3">
<path style="stroke:none;" d="M 4.046875 0 L 4.046875 -4.40625 L 3.359375 -4.40625 L 3.359375 -1.96875 C 3.359375 -1.078125 2.890625 -0.484375 2.15625 -0.484375 C 1.59375 -0.484375 1.25 -0.828125 1.25 -1.359375 L 1.25 -4.40625 L 0.546875 -4.40625 L 0.546875 -1.078125 C 0.546875 -0.34375 1.09375 0.125 1.953125 0.125 C 2.59375 0.125 3.015625 -0.09375 3.421875 -0.6875 L 3.421875 0 Z M 4.046875 0 "/>
</symbol>
<symbol overflow="visible" id="glyph2-4">
<path style="stroke:none;" d="M 2.703125 -3.796875 L 2.703125 -4.5 C 2.578125 -4.515625 2.515625 -4.53125 2.421875 -4.53125 C 1.96875 -4.53125 1.625 -4.265625 1.234375 -3.609375 L 1.234375 -4.40625 L 0.59375 -4.40625 L 0.59375 0 L 1.28125 0 L 1.28125 -2.28125 C 1.28125 -3.28125 1.609375 -3.78125 2.703125 -3.796875 Z M 2.703125 -3.796875 "/>
</symbol>
<symbol overflow="visible" id="glyph2-5">
<path style="stroke:none;" d="M 5.953125 0 L 5.953125 -3.234375 L 3.40625 -3.234375 L 3.40625 -2.546875 L 5.265625 -2.546875 L 5.265625 -2.375 C 5.265625 -1.28125 4.46875 -0.53125 3.34375 -0.53125 C 1.953125 -0.53125 1.15625 -1.546875 1.15625 -3.046875 C 1.15625 -4.546875 2.015625 -5.59375 3.296875 -5.59375 C 4.234375 -5.59375 4.90625 -5.0625 5.078125 -4.265625 L 5.875 -4.265625 C 5.65625 -5.515625 4.71875 -6.28125 3.3125 -6.28125 C 1.4375 -6.28125 0.375 -4.828125 0.375 -3 C 0.375 -1.125 1.515625 0.15625 3.171875 0.15625 C 4.015625 0.15625 4.671875 -0.140625 5.265625 -0.8125 L 5.46875 0 Z M 5.953125 0 "/>
</symbol>
<symbol overflow="visible" id="glyph2-6">
<path style="stroke:none;" d="M 2.921875 0 L 2.921875 -5.953125 L 2.421875 -5.953125 C 2.171875 -5.046875 2 -4.921875 0.859375 -4.78125 L 0.859375 -4.25 L 2.171875 -4.25 L 2.171875 0 Z M 2.921875 0 "/>
</symbol>
<symbol overflow="visible" id="glyph2-7">
<path style="stroke:none;" d="M 5.6875 -2.234375 L 4.890625 -2.234375 C 4.703125 -1.078125 4.21875 -0.53125 3.171875 -0.53125 C 1.953125 -0.53125 1.1875 -1.46875 1.1875 -3 C 1.1875 -4.578125 1.921875 -5.59375 3.109375 -5.59375 C 4.0625 -5.59375 4.578125 -5.15625 4.765625 -4.234375 L 5.5625 -4.234375 C 5.328125 -5.578125 4.546875 -6.28125 3.203125 -6.28125 C 1.34375 -6.28125 0.40625 -4.78125 0.40625 -3 C 0.40625 -1.203125 1.375 0.15625 3.171875 0.15625 C 4.671875 0.15625 5.5 -0.640625 5.6875 -2.234375 Z M 5.6875 -2.234375 "/>
</symbol>
<symbol overflow="visible" id="glyph2-8">
<path style="stroke:none;" d="M 5.21875 -1.6875 C 5.21875 -2.4375 4.75 -3 3.921875 -3.21875 L 2.375 -3.625 C 1.640625 -3.828125 1.375 -4.0625 1.375 -4.546875 C 1.375 -5.15625 1.921875 -5.625 2.734375 -5.625 C 3.71875 -5.625 4.265625 -5.171875 4.265625 -4.375 L 5.015625 -4.375 C 5.015625 -5.578125 4.171875 -6.28125 2.765625 -6.28125 C 1.421875 -6.28125 0.59375 -5.546875 0.59375 -4.4375 C 0.59375 -3.6875 0.984375 -3.21875 1.796875 -3 L 3.3125 -2.59375 C 4.078125 -2.390625 4.4375 -2.078125 4.4375 -1.609375 C 4.4375 -0.9375 3.9375 -0.53125 2.875 -0.53125 C 1.71875 -0.53125 1.140625 -1.125 1.140625 -2 L 0.40625 -2 C 0.40625 -0.546875 1.375 0.15625 2.828125 0.15625 C 4.375 0.15625 5.21875 -0.59375 5.21875 -1.6875 Z M 5.21875 -1.6875 "/>
</symbol>
<symbol overflow="visible" id="glyph2-9">
<path style="stroke:none;" d="M 4.3125 -1.96875 C 4.3125 -3.15625 3.53125 -3.921875 2.390625 -3.921875 C 1.96875 -3.921875 1.625 -3.8125 1.28125 -3.5625 L 1.515625 -5.109375 L 4 -5.109375 L 4 -5.828125 L 0.921875 -5.828125 L 0.484375 -2.71875 L 1.15625 -2.71875 C 1.5 -3.125 1.796875 -3.265625 2.25 -3.265625 C 3.046875 -3.265625 3.5625 -2.75 3.5625 -1.875 C 3.5625 -1.015625 3.0625 -0.53125 2.25 -0.53125 C 1.609375 -0.53125 1.203125 -0.859375 1.03125 -1.53125 L 0.296875 -1.53125 C 0.53125 -0.34375 1.203125 0.125 2.265625 0.125 C 3.46875 0.125 4.3125 -0.71875 4.3125 -1.96875 Z M 4.3125 -1.96875 "/>
</symbol>
<symbol overflow="visible" id="glyph2-10">
<path style="stroke:none;" d="M 4.296875 -4.21875 C 4.296875 -5.21875 3.515625 -5.953125 2.390625 -5.953125 C 1.171875 -5.953125 0.46875 -5.34375 0.421875 -3.890625 L 1.15625 -3.890625 C 1.21875 -4.890625 1.625 -5.3125 2.359375 -5.3125 C 3.03125 -5.3125 3.53125 -4.828125 3.53125 -4.1875 C 3.53125 -3.71875 3.265625 -3.328125 2.734375 -3.015625 L 1.953125 -2.578125 C 0.71875 -1.875 0.359375 -1.3125 0.28125 0 L 4.25 0 L 4.25 -0.734375 L 1.125 -0.734375 C 1.1875 -1.21875 1.46875 -1.53125 2.1875 -1.953125 L 3.03125 -2.40625 C 3.859375 -2.859375 4.296875 -3.484375 4.296875 -4.21875 Z M 4.296875 -4.21875 "/>
</symbol>
<symbol overflow="visible" id="glyph2-11">
<path style="stroke:none;" d="M 4.28125 -3.125 C 4.28125 -4.984375 3.625 -5.953125 2.265625 -5.953125 C 1.140625 -5.953125 0.3125 -5.15625 0.3125 -3.984375 C 0.3125 -2.875 1.078125 -2.125 2.15625 -2.125 C 2.71875 -2.125 3.125 -2.328125 3.515625 -2.796875 C 3.5 -1.34375 3.03125 -0.53125 2.1875 -0.53125 C 1.671875 -0.53125 1.296875 -0.859375 1.1875 -1.421875 L 0.453125 -1.421875 C 0.59375 -0.453125 1.234375 0.125 2.140625 0.125 C 3.53125 0.125 4.28125 -1.0625 4.28125 -3.125 Z M 3.46875 -4 C 3.46875 -3.265625 2.953125 -2.78125 2.234375 -2.78125 C 1.515625 -2.78125 1.078125 -3.25 1.078125 -4.046875 C 1.078125 -4.796875 1.578125 -5.3125 2.265625 -5.3125 C 2.953125 -5.3125 3.46875 -4.78125 3.46875 -4 Z M 3.46875 -4 "/>
</symbol>
<symbol overflow="visible" id="glyph2-12">
<path style="stroke:none;" d="M 4.25 -1.734375 C 4.25 -2.453125 3.953125 -2.875 3.25 -3.125 C 3.796875 -3.34375 4.078125 -3.71875 4.078125 -4.328125 C 4.078125 -5.34375 3.390625 -5.953125 2.265625 -5.953125 C 1.0625 -5.953125 0.421875 -5.296875 0.390625 -4.03125 L 1.140625 -4.03125 C 1.15625 -4.921875 1.515625 -5.3125 2.265625 -5.3125 C 2.921875 -5.3125 3.328125 -4.921875 3.328125 -4.296875 C 3.328125 -3.65625 3.046875 -3.390625 1.859375 -3.390625 L 1.859375 -2.78125 L 2.265625 -2.78125 C 3.078125 -2.78125 3.5 -2.390625 3.5 -1.71875 C 3.5 -0.96875 3.03125 -0.53125 2.265625 -0.53125 C 1.453125 -0.53125 1.0625 -0.9375 1.015625 -1.796875 L 0.265625 -1.796875 C 0.359375 -0.46875 1.015625 0.125 2.234375 0.125 C 3.46875 0.125 4.25 -0.609375 4.25 -1.734375 Z M 4.25 -1.734375 "/>
</symbol>
<symbol overflow="visible" id="glyph2-13">
<path style="stroke:none;" d="M 4.984375 -5.4375 L 4.984375 -6.125 L 0.171875 -6.125 L 0.171875 -5.4375 L 2.1875 -5.4375 L 2.1875 0 L 2.96875 0 L 2.96875 -5.4375 Z M 4.984375 -5.4375 "/>
</symbol>
<symbol overflow="visible" id="glyph2-14">
<path style="stroke:none;" d="M 4.375 -5.21875 L 4.375 -5.828125 L 0.390625 -5.828125 L 0.390625 -5.109375 L 3.609375 -5.109375 C 2.421875 -3.609375 1.578125 -1.859375 1.15625 0 L 1.953125 0 C 2.28125 -1.921875 3.125 -3.71875 4.375 -5.21875 Z M 4.375 -5.21875 "/>
</symbol>
<symbol overflow="visible" id="glyph2-15">
<path style="stroke:none;" d="M 4.3125 -1.84375 C 4.3125 -2.953125 3.5625 -3.703125 2.484375 -3.703125 C 1.90625 -3.703125 1.4375 -3.484375 1.125 -3.046875 C 1.125 -4.5 1.59375 -5.296875 2.453125 -5.296875 C 2.96875 -5.296875 3.328125 -4.96875 3.453125 -4.40625 L 4.1875 -4.40625 C 4.046875 -5.375 3.40625 -5.953125 2.5 -5.953125 C 1.109375 -5.953125 0.359375 -4.796875 0.359375 -2.71875 C 0.359375 -0.859375 1 0.125 2.359375 0.125 C 3.5 0.125 4.3125 -0.6875 4.3125 -1.84375 Z M 3.5625 -1.796875 C 3.5625 -1.046875 3.046875 -0.53125 2.375 -0.53125 C 1.6875 -0.53125 1.15625 -1.0625 1.15625 -1.828125 C 1.15625 -2.578125 1.671875 -3.046875 2.390625 -3.046875 C 3.109375 -3.046875 3.5625 -2.59375 3.5625 -1.796875 Z M 3.5625 -1.796875 "/>
</symbol>
<symbol overflow="visible" id="glyph2-16">
<path style="stroke:none;" d="M 4.265625 -2.859375 C 4.265625 -4.9375 3.609375 -5.953125 2.3125 -5.953125 C 1.03125 -5.953125 0.359375 -4.921875 0.359375 -2.921875 C 0.359375 -0.90625 1.03125 0.125 2.3125 0.125 C 3.578125 0.125 4.265625 -0.90625 4.265625 -2.859375 Z M 3.5 -2.9375 C 3.5 -1.25 3.125 -0.484375 2.296875 -0.484375 C 1.515625 -0.484375 1.125 -1.28125 1.125 -2.90625 C 1.125 -4.546875 1.515625 -5.296875 2.3125 -5.296875 C 3.109375 -5.296875 3.5 -4.53125 3.5 -2.9375 Z M 3.5 -2.9375 "/>
</symbol>
<symbol overflow="visible" id="glyph2-17">
<path style="stroke:none;" d="M 4.375 -1.421875 L 4.375 -2.09375 L 3.484375 -2.09375 L 3.484375 -5.953125 L 2.9375 -5.953125 L 0.234375 -2.203125 L 0.234375 -1.421875 L 2.75 -1.421875 L 2.75 0 L 3.484375 0 L 3.484375 -1.421875 Z M 2.75 -2.09375 L 0.875 -2.09375 L 2.75 -4.703125 Z M 2.75 -2.09375 "/>
</symbol>
<symbol overflow="visible" id="glyph2-18">
<path style="stroke:none;" d="M 5.1875 -4.328125 C 5.1875 -5.484375 4.5 -6.125 3.296875 -6.125 L 0.765625 -6.125 L 0.765625 0 L 1.546875 0 L 1.546875 -2.59375 L 3.46875 -2.59375 C 4.484375 -2.59375 5.1875 -3.3125 5.1875 -4.328125 Z M 4.375 -4.359375 C 4.375 -3.6875 3.921875 -3.28125 3.171875 -3.28125 L 1.546875 -3.28125 L 1.546875 -5.4375 L 3.171875 -5.4375 C 3.921875 -5.4375 4.375 -5.03125 4.375 -4.359375 Z M 4.375 -4.359375 "/>
</symbol>
<symbol overflow="visible" id="glyph2-19">
<path style="stroke:none;" d="M 4.3125 -1.6875 C 4.3125 -2.34375 3.96875 -2.8125 3.28125 -3.140625 C 3.90625 -3.5 4.109375 -3.8125 4.109375 -4.375 C 4.109375 -5.296875 3.375 -5.953125 2.3125 -5.953125 C 1.265625 -5.953125 0.515625 -5.296875 0.515625 -4.375 C 0.515625 -3.8125 0.71875 -3.515625 1.328125 -3.140625 C 0.640625 -2.8125 0.3125 -2.34375 0.3125 -1.6875 C 0.3125 -0.59375 1.140625 0.125 2.3125 0.125 C 3.484375 0.125 4.3125 -0.59375 4.3125 -1.6875 Z M 3.34375 -4.359375 C 3.34375 -3.796875 2.9375 -3.4375 2.3125 -3.4375 C 1.6875 -3.4375 1.28125 -3.796875 1.28125 -4.359375 C 1.28125 -4.9375 1.6875 -5.296875 2.3125 -5.296875 C 2.9375 -5.296875 3.34375 -4.9375 3.34375 -4.359375 Z M 3.5625 -1.671875 C 3.5625 -0.96875 3.046875 -0.53125 2.296875 -0.53125 C 1.578125 -0.53125 1.0625 -0.96875 1.0625 -1.671875 C 1.0625 -2.375 1.578125 -2.8125 2.3125 -2.8125 C 3.046875 -2.8125 3.5625 -2.375 3.5625 -1.671875 Z M 3.5625 -1.671875 "/>
</symbol>
<symbol overflow="visible" id="glyph3-0">
<path style="stroke:none;" d=""/>
</symbol>
<symbol overflow="visible" id="glyph3-1">
<path style="stroke:none;" d="M 6.796875 0 L 6.796875 -3.6875 L 3.890625 -3.6875 L 3.890625 -2.90625 L 6.015625 -2.90625 L 6.015625 -2.71875 C 6.015625 -1.46875 5.09375 -0.609375 3.8125 -0.609375 C 2.234375 -0.609375 1.3125 -1.765625 1.3125 -3.46875 C 1.3125 -5.1875 2.296875 -6.375 3.765625 -6.375 C 4.828125 -6.375 5.609375 -5.78125 5.796875 -4.875 L 6.703125 -4.875 C 6.453125 -6.296875 5.375 -7.171875 3.78125 -7.171875 C 1.640625 -7.171875 0.421875 -5.515625 0.421875 -3.421875 C 0.421875 -1.28125 1.734375 0.171875 3.625 0.171875 C 4.578125 0.171875 5.328125 -0.15625 6.015625 -0.921875 L 6.234375 0 Z M 6.796875 0 "/>
</symbol>
<symbol overflow="visible" id="glyph3-2">
<path style="stroke:none;" d="M 6.5 -2.546875 L 5.578125 -2.546875 C 5.359375 -1.234375 4.8125 -0.609375 3.625 -0.609375 C 2.234375 -0.609375 1.359375 -1.671875 1.359375 -3.421875 C 1.359375 -5.21875 2.203125 -6.375 3.546875 -6.375 C 4.640625 -6.375 5.21875 -5.890625 5.4375 -4.828125 L 6.34375 -4.828125 C 6.078125 -6.359375 5.1875 -7.171875 3.65625 -7.171875 C 1.53125 -7.171875 0.453125 -5.453125 0.453125 -3.421875 C 0.453125 -1.375 1.5625 0.171875 3.609375 0.171875 C 5.328125 0.171875 6.28125 -0.734375 6.5 -2.546875 Z M 6.5 -2.546875 "/>
</symbol>
<symbol overflow="visible" id="glyph3-3">
<path style="stroke:none;" d="M 5.6875 -6.203125 L 5.6875 -7 L 0.203125 -7 L 0.203125 -6.203125 L 2.5 -6.203125 L 2.5 0 L 3.390625 0 L 3.390625 -6.203125 Z M 5.6875 -6.203125 "/>
</symbol>
<symbol overflow="visible" id="glyph3-4">
<path style="stroke:none;" d="M 5.921875 -4.9375 C 5.921875 -6.25 5.140625 -7 3.765625 -7 L 0.875 -7 L 0.875 0 L 1.765625 0 L 1.765625 -2.96875 L 3.96875 -2.96875 C 5.109375 -2.96875 5.921875 -3.78125 5.921875 -4.9375 Z M 4.984375 -4.984375 C 4.984375 -4.21875 4.484375 -3.75 3.625 -3.75 L 1.765625 -3.75 L 1.765625 -6.203125 L 3.625 -6.203125 C 4.484375 -6.203125 4.984375 -5.75 4.984375 -4.984375 Z M 4.984375 -4.984375 "/>
</symbol>
</g>
<clipPath id="clip1">
  <path d="M 59.039062 169 L 700.757812 169 L 700.757812 171 L 59.039062 171 Z M 59.039062 169 "/>
</clipPath>
<clipPath id="clip2">
  <path d="M 353 59.039062 L 355 59.039062 L 355 323 L 353 323 Z M 353 59.039062 "/>
</clipPath>
</defs>
<g id="surface1755">
<rect x="0" y="0" width="730" height="396" style="fill:rgb(100%,100%,100%);fill-opacity:1;stroke:none;"/>
<path style="fill:none;stroke-width:0.75;stroke-linecap:round;stroke-linejoin:round;stroke:rgb(0%,0%,0%);stroke-opacity:1;stroke-miterlimit:10;" d="M 196.871094 322.558594 L 669.074219 322.558594 "/>
<path style="fill:none;stroke-width:0.75;stroke-linecap:round;stroke-linejoin:round;stroke:rgb(0%,0%,0%);stroke-opacity:1;stroke-miterlimit:10;" d="M 196.871094 322.558594 L 196.871094 329.761719 "/>
<path style="fill:none;stroke-width:0.75;stroke-linecap:round;stroke-linejoin:round;stroke:rgb(0%,0%,0%);stroke-opacity:1;stroke-miterlimit:10;" d="M 354.273438 322.558594 L 354.273438 329.761719 "/>
<path style="fill:none;stroke-width:0.75;stroke-linecap:round;stroke-linejoin:round;stroke:rgb(0%,0%,0%);stroke-opacity:1;stroke-miterlimit:10;" d="M 511.671875 322.558594 L 511.671875 329.761719 "/>
<path style="fill:none;stroke-width:0.75;stroke-linecap:round;stroke-linejoin:round;stroke:rgb(0%,0%,0%);stroke-opacity:1;stroke-miterlimit:10;" d="M 669.074219 322.558594 L 669.074219 329.761719 "/>
<g style="fill:rgb(0%,0%,0%);fill-opacity:1;">
  <use xlink:href="#glyph0-1" x="191.371094" y="348.256836"/>
  <use xlink:href="#glyph0-2" x="195.367188" y="348.256836"/>
</g>
<g style="fill:rgb(0%,0%,0%);fill-opacity:1;">
  <use xlink:href="#glyph0-3" x="350.773438" y="348.256836"/>
</g>
<g style="fill:rgb(0%,0%,0%);fill-opacity:1;">
  <use xlink:href="#glyph0-2" x="508.171875" y="348.256836"/>
</g>
<g style="fill:rgb(0%,0%,0%);fill-opacity:1;">
  <use xlink:href="#glyph0-4" x="665.574219" y="348.256836"/>
</g>
<path style="fill:none;stroke-width:0.75;stroke-linecap:round;stroke-linejoin:round;stroke:rgb(0%,0%,0%);stroke-opacity:1;stroke-miterlimit:10;" d="M 59.039062 287.804688 L 59.039062 91.054688 "/>
<path style="fill:none;stroke-width:0.75;stroke-linecap:round;stroke-linejoin:round;stroke:rgb(0%,0%,0%);stroke-opacity:1;stroke-miterlimit:10;" d="M 59.039062 287.804688 L 51.839844 287.804688 "/>
<path style="fill:none;stroke-width:0.75;stroke-linecap:round;stroke-linejoin:round;stroke:rgb(0%,0%,0%);stroke-opacity:1;stroke-miterlimit:10;" d="M 59.039062 248.453125 L 51.839844 248.453125 "/>
<path style="fill:none;stroke-width:0.75;stroke-linecap:round;stroke-linejoin:round;stroke:rgb(0%,0%,0%);stroke-opacity:1;stroke-miterlimit:10;" d="M 59.039062 209.105469 L 51.839844 209.105469 "/>
<path style="fill:none;stroke-width:0.75;stroke-linecap:round;stroke-linejoin:round;stroke:rgb(0%,0%,0%);stroke-opacity:1;stroke-miterlimit:10;" d="M 59.039062 169.753906 L 51.839844 169.753906 "/>
<path style="fill:none;stroke-width:0.75;stroke-linecap:round;stroke-linejoin:round;stroke:rgb(0%,0%,0%);stroke-opacity:1;stroke-miterlimit:10;" d="M 59.039062 130.402344 L 51.839844 130.402344 "/>
<path style="fill:none;stroke-width:0.75;stroke-linecap:round;stroke-linejoin:round;stroke:rgb(0%,0%,0%);stroke-opacity:1;stroke-miterlimit:10;" d="M 59.039062 91.054688 L 51.839844 91.054688 "/>
<g style="fill:rgb(0%,0%,0%);fill-opacity:1;">
  <use xlink:href="#glyph1-1" x="41.538086" y="298.304688"/>
  <use xlink:href="#glyph1-2" x="41.538086" y="294.308594"/>
  <use xlink:href="#glyph1-3" x="41.538086" y="287.636719"/>
  <use xlink:href="#glyph1-4" x="41.538086" y="284.300781"/>
</g>
<g style="fill:rgb(0%,0%,0%);fill-opacity:1;">
  <use xlink:href="#glyph1-1" x="41.538086" y="258.953125"/>
  <use xlink:href="#glyph1-2" x="41.538086" y="254.957031"/>
  <use xlink:href="#glyph1-3" x="41.538086" y="248.285156"/>
  <use xlink:href="#glyph1-5" x="41.538086" y="244.949219"/>
</g>
<g style="fill:rgb(0%,0%,0%);fill-opacity:1;">
  <use xlink:href="#glyph1-1" x="41.538086" y="219.605469"/>
  <use xlink:href="#glyph1-5" x="41.538086" y="215.609375"/>
  <use xlink:href="#glyph1-3" x="41.538086" y="208.9375"/>
  <use xlink:href="#glyph1-4" x="41.538086" y="205.601562"/>
</g>
<g style="fill:rgb(0%,0%,0%);fill-opacity:1;">
  <use xlink:href="#glyph1-5" x="41.538086" y="178.253906"/>
  <use xlink:href="#glyph1-3" x="41.538086" y="171.582031"/>
  <use xlink:href="#glyph1-5" x="41.538086" y="168.246094"/>
</g>
<g style="fill:rgb(0%,0%,0%);fill-opacity:1;">
  <use xlink:href="#glyph1-5" x="41.538086" y="138.902344"/>
  <use xlink:href="#glyph1-3" x="41.538086" y="132.230469"/>
  <use xlink:href="#glyph1-4" x="41.538086" y="128.894531"/>
</g>
<g style="fill:rgb(0%,0%,0%);fill-opacity:1;">
  <use xlink:href="#glyph1-2" x="41.538086" y="99.554688"/>
  <use xlink:href="#glyph1-3" x="41.538086" y="92.882812"/>
  <use xlink:href="#glyph1-5" x="41.538086" y="89.546875"/>
</g>
<path style="fill:none;stroke-width:0.75;stroke-linecap:round;stroke-linejoin:round;stroke:rgb(0%,0%,0%);stroke-opacity:1;stroke-miterlimit:10;" d="M 59.039062 322.558594 L 699.761719 322.558594 L 699.761719 59.039062 L 59.039062 59.039062 L 59.039062 322.558594 "/>
<g style="fill:rgb(0%,0%,0%);fill-opacity:1;">
  <use xlink:href="#glyph0-5" x="362.898438" y="377.057617"/>
  <use xlink:href="#glyph0-5" x="371.5625" y="377.057617"/>
  <use xlink:href="#glyph0-6" x="380.226562" y="377.057617"/>
  <use xlink:href="#glyph0-7" x="388.230469" y="377.057617"/>
</g>
<g style="fill:rgb(0%,0%,0%);fill-opacity:1;">
  <use xlink:href="#glyph1-6" x="12.737305" y="207.300781"/>
  <use xlink:href="#glyph1-6" x="12.737305" y="198.636719"/>
  <use xlink:href="#glyph1-7" x="12.737305" y="189.972656"/>
  <use xlink:href="#glyph1-8" x="12.737305" y="181.96875"/>
</g>
<g clip-path="url(#clip1)" clip-rule="nonzero">
<path style="fill:none;stroke-width:0.75;stroke-linecap:round;stroke-linejoin:round;stroke:rgb(0%,0%,0%);stroke-opacity:1;stroke-dasharray:0.75,2.25;stroke-miterlimit:10;" d="M 59.039062 169.753906 L 699.761719 169.753906 "/>
</g>
<g clip-path="url(#clip2)" clip-rule="nonzero">
<path style="fill:none;stroke-width:0.75;stroke-linecap:round;stroke-linejoin:round;stroke:rgb(0%,0%,0%);stroke-opacity:1;stroke-dasharray:0.75,2.25;stroke-miterlimit:10;" d="M 354.273438 322.558594 L 354.273438 59.039062 "/>
</g>
<g style="fill:rgb(0%,0%,0%);fill-opacity:1;">
  <use xlink:href="#glyph2-1" x="208.28125" y="72.248047"/>
  <use xlink:href="#glyph2-2" x="212.951172" y="72.248047"/>
  <use xlink:href="#glyph2-3" x="217.621094" y="72.248047"/>
  <use xlink:href="#glyph2-4" x="222.291016" y="72.248047"/>
  <use xlink:href="#glyph2-2" x="225.087891" y="72.248047"/>
  <use xlink:href="#glyph2-5" x="229.757812" y="72.248047"/>
  <use xlink:href="#glyph2-6" x="236.292969" y="72.248047"/>
  <use xlink:href="#glyph2-7" x="240.962891" y="72.248047"/>
  <use xlink:href="#glyph2-6" x="247.027344" y="72.248047"/>
  <use xlink:href="#glyph2-8" x="251.697266" y="72.248047"/>
  <use xlink:href="#glyph2-6" x="257.299805" y="72.248047"/>
  <use xlink:href="#glyph2-9" x="261.969727" y="72.248047"/>
</g>
<g style="fill:rgb(0%,0%,0%);fill-opacity:1;">
  <use xlink:href="#glyph2-1" x="212.449219" y="83.431641"/>
  <use xlink:href="#glyph2-2" x="217.119141" y="83.431641"/>
  <use xlink:href="#glyph2-3" x="221.789062" y="83.431641"/>
  <use xlink:href="#glyph2-4" x="226.458984" y="83.431641"/>
  <use xlink:href="#glyph2-2" x="229.255859" y="83.431641"/>
  <use xlink:href="#glyph2-5" x="233.925781" y="83.431641"/>
  <use xlink:href="#glyph2-6" x="240.460938" y="83.431641"/>
  <use xlink:href="#glyph2-7" x="245.130859" y="83.431641"/>
  <use xlink:href="#glyph2-10" x="251.195312" y="83.431641"/>
  <use xlink:href="#glyph2-8" x="255.865234" y="83.431641"/>
  <use xlink:href="#glyph2-6" x="261.467773" y="83.431641"/>
  <use xlink:href="#glyph2-11" x="266.137695" y="83.431641"/>
</g>
<g style="fill:rgb(0%,0%,0%);fill-opacity:1;">
  <use xlink:href="#glyph2-1" x="272.609375" y="124.064453"/>
  <use xlink:href="#glyph2-2" x="277.279297" y="124.064453"/>
  <use xlink:href="#glyph2-3" x="281.949219" y="124.064453"/>
  <use xlink:href="#glyph2-4" x="286.619141" y="124.064453"/>
  <use xlink:href="#glyph2-2" x="289.416016" y="124.064453"/>
  <use xlink:href="#glyph2-5" x="294.085938" y="124.064453"/>
  <use xlink:href="#glyph2-6" x="300.621094" y="124.064453"/>
  <use xlink:href="#glyph2-7" x="305.291016" y="124.064453"/>
  <use xlink:href="#glyph2-12" x="311.355469" y="124.064453"/>
  <use xlink:href="#glyph2-8" x="316.025391" y="124.064453"/>
  <use xlink:href="#glyph2-10" x="321.62793" y="124.064453"/>
  <use xlink:href="#glyph2-12" x="326.297852" y="124.064453"/>
</g>
<g style="fill:rgb(0%,0%,0%);fill-opacity:1;">
  <use xlink:href="#glyph2-1" x="454.195312" y="111.798828"/>
  <use xlink:href="#glyph2-2" x="458.865234" y="111.798828"/>
  <use xlink:href="#glyph2-3" x="463.535156" y="111.798828"/>
  <use xlink:href="#glyph2-4" x="468.205078" y="111.798828"/>
  <use xlink:href="#glyph2-2" x="471.001953" y="111.798828"/>
  <use xlink:href="#glyph2-5" x="475.671875" y="111.798828"/>
  <use xlink:href="#glyph2-6" x="482.207031" y="111.798828"/>
  <use xlink:href="#glyph2-13" x="486.876953" y="111.798828"/>
  <use xlink:href="#glyph2-10" x="492.008789" y="111.798828"/>
  <use xlink:href="#glyph2-8" x="496.678711" y="111.798828"/>
  <use xlink:href="#glyph2-14" x="502.28125" y="111.798828"/>
</g>
<g style="fill:rgb(0%,0%,0%);fill-opacity:1;">
  <use xlink:href="#glyph2-1" x="345.125" y="184.138672"/>
  <use xlink:href="#glyph2-2" x="349.794922" y="184.138672"/>
  <use xlink:href="#glyph2-3" x="354.464844" y="184.138672"/>
  <use xlink:href="#glyph2-4" x="359.134766" y="184.138672"/>
  <use xlink:href="#glyph2-2" x="361.931641" y="184.138672"/>
  <use xlink:href="#glyph2-5" x="366.601562" y="184.138672"/>
  <use xlink:href="#glyph2-6" x="373.136719" y="184.138672"/>
  <use xlink:href="#glyph2-13" x="377.806641" y="184.138672"/>
  <use xlink:href="#glyph2-12" x="382.938477" y="184.138672"/>
  <use xlink:href="#glyph2-8" x="387.608398" y="184.138672"/>
  <use xlink:href="#glyph2-6" x="393.210938" y="184.138672"/>
  <use xlink:href="#glyph2-6" x="397.880859" y="184.138672"/>
</g>
<g style="fill:rgb(0%,0%,0%);fill-opacity:1;">
  <use xlink:href="#glyph2-1" x="246.800781" y="116.931641"/>
  <use xlink:href="#glyph2-2" x="251.470703" y="116.931641"/>
  <use xlink:href="#glyph2-3" x="256.140625" y="116.931641"/>
  <use xlink:href="#glyph2-4" x="260.810547" y="116.931641"/>
  <use xlink:href="#glyph2-2" x="263.607422" y="116.931641"/>
  <use xlink:href="#glyph2-5" x="268.277344" y="116.931641"/>
  <use xlink:href="#glyph2-10" x="274.8125" y="116.931641"/>
  <use xlink:href="#glyph2-7" x="279.482422" y="116.931641"/>
  <use xlink:href="#glyph2-6" x="285.546875" y="116.931641"/>
  <use xlink:href="#glyph2-8" x="290.216797" y="116.931641"/>
  <use xlink:href="#glyph2-6" x="295.819336" y="116.931641"/>
  <use xlink:href="#glyph2-15" x="300.489258" y="116.931641"/>
</g>
<g style="fill:rgb(0%,0%,0%);fill-opacity:1;">
  <use xlink:href="#glyph2-1" x="217.953125" y="81.716797"/>
  <use xlink:href="#glyph2-2" x="222.623047" y="81.716797"/>
  <use xlink:href="#glyph2-3" x="227.292969" y="81.716797"/>
  <use xlink:href="#glyph2-4" x="231.962891" y="81.716797"/>
  <use xlink:href="#glyph2-2" x="234.759766" y="81.716797"/>
  <use xlink:href="#glyph2-5" x="239.429688" y="81.716797"/>
  <use xlink:href="#glyph2-10" x="245.964844" y="81.716797"/>
  <use xlink:href="#glyph2-7" x="250.634766" y="81.716797"/>
  <use xlink:href="#glyph2-10" x="256.699219" y="81.716797"/>
  <use xlink:href="#glyph2-8" x="261.369141" y="81.716797"/>
  <use xlink:href="#glyph2-10" x="266.97168" y="81.716797"/>
  <use xlink:href="#glyph2-16" x="271.641602" y="81.716797"/>
</g>
<g style="fill:rgb(0%,0%,0%);fill-opacity:1;">
  <use xlink:href="#glyph2-1" x="260.136719" y="115.365234"/>
  <use xlink:href="#glyph2-2" x="264.806641" y="115.365234"/>
  <use xlink:href="#glyph2-3" x="269.476562" y="115.365234"/>
  <use xlink:href="#glyph2-4" x="274.146484" y="115.365234"/>
  <use xlink:href="#glyph2-2" x="276.943359" y="115.365234"/>
  <use xlink:href="#glyph2-5" x="281.613281" y="115.365234"/>
  <use xlink:href="#glyph2-10" x="288.148438" y="115.365234"/>
  <use xlink:href="#glyph2-7" x="292.818359" y="115.365234"/>
  <use xlink:href="#glyph2-12" x="298.882812" y="115.365234"/>
  <use xlink:href="#glyph2-8" x="303.552734" y="115.365234"/>
  <use xlink:href="#glyph2-10" x="309.155273" y="115.365234"/>
  <use xlink:href="#glyph2-17" x="313.825195" y="115.365234"/>
</g>
<g style="fill:rgb(0%,0%,0%);fill-opacity:1;">
  <use xlink:href="#glyph2-1" x="492.019531" y="71.443359"/>
  <use xlink:href="#glyph2-2" x="496.689453" y="71.443359"/>
  <use xlink:href="#glyph2-3" x="501.359375" y="71.443359"/>
  <use xlink:href="#glyph2-4" x="506.029297" y="71.443359"/>
  <use xlink:href="#glyph2-2" x="508.826172" y="71.443359"/>
  <use xlink:href="#glyph2-5" x="513.496094" y="71.443359"/>
  <use xlink:href="#glyph2-10" x="520.03125" y="71.443359"/>
  <use xlink:href="#glyph2-13" x="524.701172" y="71.443359"/>
  <use xlink:href="#glyph2-12" x="529.833008" y="71.443359"/>
  <use xlink:href="#glyph2-8" x="534.50293" y="71.443359"/>
  <use xlink:href="#glyph2-6" x="540.105469" y="71.443359"/>
  <use xlink:href="#glyph2-10" x="544.775391" y="71.443359"/>
</g>
<g style="fill:rgb(0%,0%,0%);fill-opacity:1;">
  <use xlink:href="#glyph2-1" x="319.066406" y="172.396484"/>
  <use xlink:href="#glyph2-2" x="323.736328" y="172.396484"/>
  <use xlink:href="#glyph2-3" x="328.40625" y="172.396484"/>
  <use xlink:href="#glyph2-4" x="333.076172" y="172.396484"/>
  <use xlink:href="#glyph2-2" x="335.873047" y="172.396484"/>
  <use xlink:href="#glyph2-18" x="340.542969" y="172.396484"/>
  <use xlink:href="#glyph2-6" x="346.145508" y="172.396484"/>
  <use xlink:href="#glyph2-7" x="350.81543" y="172.396484"/>
  <use xlink:href="#glyph2-6" x="356.879883" y="172.396484"/>
  <use xlink:href="#glyph2-8" x="361.549805" y="172.396484"/>
  <use xlink:href="#glyph2-6" x="367.152344" y="172.396484"/>
  <use xlink:href="#glyph2-12" x="371.822266" y="172.396484"/>
</g>
<g style="fill:rgb(0%,0%,0%);fill-opacity:1;">
  <use xlink:href="#glyph2-1" x="292.007812" y="191.654297"/>
  <use xlink:href="#glyph2-2" x="296.677734" y="191.654297"/>
  <use xlink:href="#glyph2-3" x="301.347656" y="191.654297"/>
  <use xlink:href="#glyph2-4" x="306.017578" y="191.654297"/>
  <use xlink:href="#glyph2-2" x="308.814453" y="191.654297"/>
  <use xlink:href="#glyph2-18" x="313.484375" y="191.654297"/>
  <use xlink:href="#glyph2-6" x="319.086914" y="191.654297"/>
  <use xlink:href="#glyph2-7" x="323.756836" y="191.654297"/>
  <use xlink:href="#glyph2-10" x="329.821289" y="191.654297"/>
  <use xlink:href="#glyph2-8" x="334.491211" y="191.654297"/>
  <use xlink:href="#glyph2-6" x="340.09375" y="191.654297"/>
  <use xlink:href="#glyph2-14" x="344.763672" y="191.654297"/>
</g>
<g style="fill:rgb(0%,0%,0%);fill-opacity:1;">
  <use xlink:href="#glyph2-1" x="283.28125" y="171.978516"/>
  <use xlink:href="#glyph2-2" x="287.951172" y="171.978516"/>
  <use xlink:href="#glyph2-3" x="292.621094" y="171.978516"/>
  <use xlink:href="#glyph2-4" x="297.291016" y="171.978516"/>
  <use xlink:href="#glyph2-2" x="300.087891" y="171.978516"/>
  <use xlink:href="#glyph2-18" x="304.757812" y="171.978516"/>
  <use xlink:href="#glyph2-6" x="310.360352" y="171.978516"/>
  <use xlink:href="#glyph2-7" x="315.030273" y="171.978516"/>
  <use xlink:href="#glyph2-12" x="321.094727" y="171.978516"/>
  <use xlink:href="#glyph2-8" x="325.764648" y="171.978516"/>
  <use xlink:href="#glyph2-10" x="331.367188" y="171.978516"/>
  <use xlink:href="#glyph2-6" x="336.037109" y="171.978516"/>
</g>
<g style="fill:rgb(0%,0%,0%);fill-opacity:1;">
  <use xlink:href="#glyph2-1" x="350.917969" y="248.416016"/>
  <use xlink:href="#glyph2-2" x="355.587891" y="248.416016"/>
  <use xlink:href="#glyph2-3" x="360.257812" y="248.416016"/>
  <use xlink:href="#glyph2-4" x="364.927734" y="248.416016"/>
  <use xlink:href="#glyph2-2" x="367.724609" y="248.416016"/>
  <use xlink:href="#glyph2-18" x="372.394531" y="248.416016"/>
  <use xlink:href="#glyph2-6" x="377.99707" y="248.416016"/>
  <use xlink:href="#glyph2-13" x="382.666992" y="248.416016"/>
  <use xlink:href="#glyph2-6" x="387.798828" y="248.416016"/>
  <use xlink:href="#glyph2-8" x="392.46875" y="248.416016"/>
  <use xlink:href="#glyph2-6" x="398.071289" y="248.416016"/>
</g>
<g style="fill:rgb(0%,0%,0%);fill-opacity:1;">
  <use xlink:href="#glyph2-1" x="325.90625" y="246.619141"/>
  <use xlink:href="#glyph2-2" x="330.576172" y="246.619141"/>
  <use xlink:href="#glyph2-3" x="335.246094" y="246.619141"/>
  <use xlink:href="#glyph2-4" x="339.916016" y="246.619141"/>
  <use xlink:href="#glyph2-2" x="342.712891" y="246.619141"/>
  <use xlink:href="#glyph2-18" x="347.382812" y="246.619141"/>
  <use xlink:href="#glyph2-6" x="352.985352" y="246.619141"/>
  <use xlink:href="#glyph2-13" x="357.655273" y="246.619141"/>
  <use xlink:href="#glyph2-10" x="362.787109" y="246.619141"/>
  <use xlink:href="#glyph2-8" x="367.457031" y="246.619141"/>
  <use xlink:href="#glyph2-9" x="373.05957" y="246.619141"/>
</g>
<g style="fill:rgb(0%,0%,0%);fill-opacity:1;">
  <use xlink:href="#glyph2-1" x="332.402344" y="300.767578"/>
  <use xlink:href="#glyph2-2" x="337.072266" y="300.767578"/>
  <use xlink:href="#glyph2-3" x="341.742188" y="300.767578"/>
  <use xlink:href="#glyph2-4" x="346.412109" y="300.767578"/>
  <use xlink:href="#glyph2-2" x="349.208984" y="300.767578"/>
  <use xlink:href="#glyph2-18" x="353.878906" y="300.767578"/>
  <use xlink:href="#glyph2-6" x="359.481445" y="300.767578"/>
  <use xlink:href="#glyph2-13" x="364.151367" y="300.767578"/>
  <use xlink:href="#glyph2-12" x="369.283203" y="300.767578"/>
  <use xlink:href="#glyph2-8" x="373.953125" y="300.767578"/>
  <use xlink:href="#glyph2-11" x="379.555664" y="300.767578"/>
</g>
<g style="fill:rgb(0%,0%,0%);fill-opacity:1;">
  <use xlink:href="#glyph2-1" x="304.375" y="188.349609"/>
  <use xlink:href="#glyph2-2" x="309.044922" y="188.349609"/>
  <use xlink:href="#glyph2-3" x="313.714844" y="188.349609"/>
  <use xlink:href="#glyph2-4" x="318.384766" y="188.349609"/>
  <use xlink:href="#glyph2-2" x="321.181641" y="188.349609"/>
  <use xlink:href="#glyph2-18" x="325.851562" y="188.349609"/>
  <use xlink:href="#glyph2-10" x="331.454102" y="188.349609"/>
  <use xlink:href="#glyph2-7" x="336.124023" y="188.349609"/>
  <use xlink:href="#glyph2-6" x="342.188477" y="188.349609"/>
  <use xlink:href="#glyph2-8" x="346.858398" y="188.349609"/>
  <use xlink:href="#glyph2-6" x="352.460938" y="188.349609"/>
  <use xlink:href="#glyph2-17" x="357.130859" y="188.349609"/>
</g>
<g style="fill:rgb(0%,0%,0%);fill-opacity:1;">
  <use xlink:href="#glyph2-1" x="271.414062" y="125.607422"/>
  <use xlink:href="#glyph2-2" x="276.083984" y="125.607422"/>
  <use xlink:href="#glyph2-3" x="280.753906" y="125.607422"/>
  <use xlink:href="#glyph2-4" x="285.423828" y="125.607422"/>
  <use xlink:href="#glyph2-2" x="288.220703" y="125.607422"/>
  <use xlink:href="#glyph2-18" x="292.890625" y="125.607422"/>
  <use xlink:href="#glyph2-10" x="298.493164" y="125.607422"/>
  <use xlink:href="#glyph2-7" x="303.163086" y="125.607422"/>
  <use xlink:href="#glyph2-10" x="309.227539" y="125.607422"/>
  <use xlink:href="#glyph2-8" x="313.897461" y="125.607422"/>
  <use xlink:href="#glyph2-6" x="319.5" y="125.607422"/>
  <use xlink:href="#glyph2-19" x="324.169922" y="125.607422"/>
</g>
<g style="fill:rgb(0%,0%,0%);fill-opacity:1;">
  <use xlink:href="#glyph2-1" x="300.5625" y="188.466797"/>
  <use xlink:href="#glyph2-2" x="305.232422" y="188.466797"/>
  <use xlink:href="#glyph2-3" x="309.902344" y="188.466797"/>
  <use xlink:href="#glyph2-4" x="314.572266" y="188.466797"/>
  <use xlink:href="#glyph2-2" x="317.369141" y="188.466797"/>
  <use xlink:href="#glyph2-18" x="322.039062" y="188.466797"/>
  <use xlink:href="#glyph2-10" x="327.641602" y="188.466797"/>
  <use xlink:href="#glyph2-7" x="332.311523" y="188.466797"/>
  <use xlink:href="#glyph2-12" x="338.375977" y="188.466797"/>
  <use xlink:href="#glyph2-8" x="343.045898" y="188.466797"/>
  <use xlink:href="#glyph2-10" x="348.648438" y="188.466797"/>
  <use xlink:href="#glyph2-10" x="353.318359" y="188.466797"/>
</g>
<g style="fill:rgb(0%,0%,0%);fill-opacity:1;">
  <use xlink:href="#glyph2-1" x="320.023438" y="252.384766"/>
  <use xlink:href="#glyph2-2" x="324.693359" y="252.384766"/>
  <use xlink:href="#glyph2-3" x="329.363281" y="252.384766"/>
  <use xlink:href="#glyph2-4" x="334.033203" y="252.384766"/>
  <use xlink:href="#glyph2-2" x="336.830078" y="252.384766"/>
  <use xlink:href="#glyph2-18" x="341.5" y="252.384766"/>
  <use xlink:href="#glyph2-10" x="347.102539" y="252.384766"/>
  <use xlink:href="#glyph2-13" x="351.772461" y="252.384766"/>
  <use xlink:href="#glyph2-10" x="356.904297" y="252.384766"/>
  <use xlink:href="#glyph2-8" x="361.574219" y="252.384766"/>
  <use xlink:href="#glyph2-15" x="367.176758" y="252.384766"/>
</g>
<g style="fill:rgb(0%,0%,0%);fill-opacity:1;">
  <use xlink:href="#glyph2-1" x="304.257812" y="315.443359"/>
  <use xlink:href="#glyph2-2" x="308.927734" y="315.443359"/>
  <use xlink:href="#glyph2-3" x="313.597656" y="315.443359"/>
  <use xlink:href="#glyph2-4" x="318.267578" y="315.443359"/>
  <use xlink:href="#glyph2-2" x="321.064453" y="315.443359"/>
  <use xlink:href="#glyph2-18" x="325.734375" y="315.443359"/>
  <use xlink:href="#glyph2-10" x="331.336914" y="315.443359"/>
  <use xlink:href="#glyph2-13" x="336.006836" y="315.443359"/>
  <use xlink:href="#glyph2-12" x="341.138672" y="315.443359"/>
  <use xlink:href="#glyph2-8" x="345.808594" y="315.443359"/>
  <use xlink:href="#glyph2-6" x="351.411133" y="315.443359"/>
  <use xlink:href="#glyph2-16" x="356.081055" y="315.443359"/>
</g>
<path style=" stroke:none;fill-rule:nonzero;fill:rgb(0%,0%,0%);fill-opacity:1;" d="M 241.832031 69.605469 C 241.832031 75.003906 233.730469 75.003906 233.730469 69.605469 C 233.730469 64.207031 241.832031 64.207031 241.832031 69.605469 "/>
<path style=" stroke:none;fill-rule:nonzero;fill:rgb(0%,0%,0%);fill-opacity:1;" d="M 246 80.789062 C 246 86.191406 237.898438 86.191406 237.898438 80.789062 C 237.898438 75.390625 246 75.390625 246 80.789062 "/>
<path style=" stroke:none;fill-rule:nonzero;fill:rgb(0%,0%,0%);fill-opacity:1;" d="M 306.15625 121.421875 C 306.15625 126.820312 298.058594 126.820312 298.058594 121.421875 C 298.058594 116.023438 306.15625 116.023438 306.15625 121.421875 "/>
<path style=" stroke:none;fill-rule:nonzero;fill:rgb(100%,0%,0%);fill-opacity:1;" d="M 484.746094 109.15625 C 484.746094 114.554688 476.644531 114.554688 476.644531 109.15625 C 476.644531 103.757812 484.746094 103.757812 484.746094 109.15625 "/>
<path style=" stroke:none;fill-rule:nonzero;fill:rgb(100%,0%,0%);fill-opacity:1;" d="M 378.175781 181.496094 C 378.175781 186.894531 370.074219 186.894531 370.074219 181.496094 C 370.074219 176.09375 378.175781 176.09375 378.175781 181.496094 "/>
<path style=" stroke:none;fill-rule:nonzero;fill:rgb(0%,0%,0%);fill-opacity:1;" d="M 280.351562 114.289062 C 280.351562 119.6875 272.25 119.6875 272.25 114.289062 C 272.25 108.886719 280.351562 108.886719 280.351562 114.289062 "/>
<path style=" stroke:none;fill-rule:nonzero;fill:rgb(0%,0%,0%);fill-opacity:1;" d="M 251.503906 79.074219 C 251.503906 84.472656 243.402344 84.472656 243.402344 79.074219 C 243.402344 73.675781 251.503906 73.675781 251.503906 79.074219 "/>
<path style=" stroke:none;fill-rule:nonzero;fill:rgb(0%,0%,0%);fill-opacity:1;" d="M 293.6875 112.722656 C 293.6875 118.121094 285.585938 118.121094 285.585938 112.722656 C 285.585938 107.320312 293.6875 107.320312 293.6875 112.722656 "/>
<path style=" stroke:none;fill-rule:nonzero;fill:rgb(100%,0%,0%);fill-opacity:1;" d="M 525.070312 68.800781 C 525.070312 74.199219 516.96875 74.199219 516.96875 68.800781 C 516.96875 63.398438 525.070312 63.398438 525.070312 68.800781 "/>
<path style=" stroke:none;fill-rule:nonzero;fill:rgb(0%,80.392157%,0%);fill-opacity:1;" d="M 352.117188 169.753906 C 352.117188 175.15625 344.015625 175.15625 344.015625 169.753906 C 344.015625 164.355469 352.117188 164.355469 352.117188 169.753906 "/>
<path style=" stroke:none;fill-rule:nonzero;fill:rgb(0%,80.392157%,0%);fill-opacity:1;" d="M 325.058594 189.011719 C 325.058594 194.414062 316.957031 194.414062 316.957031 189.011719 C 316.957031 183.613281 325.058594 183.613281 325.058594 189.011719 "/>
<path style=" stroke:none;fill-rule:nonzero;fill:rgb(0%,80.392157%,0%);fill-opacity:1;" d="M 316.332031 169.335938 C 316.332031 174.734375 308.230469 174.734375 308.230469 169.335938 C 308.230469 163.9375 316.332031 163.9375 316.332031 169.335938 "/>
<path style=" stroke:none;fill-rule:nonzero;fill:rgb(0%,0%,100%);fill-opacity:1;" d="M 380.96875 245.773438 C 380.96875 251.175781 372.871094 251.175781 372.871094 245.773438 C 372.871094 240.375 380.96875 240.375 380.96875 245.773438 "/>
<path style=" stroke:none;fill-rule:nonzero;fill:rgb(0%,0%,100%);fill-opacity:1;" d="M 355.953125 243.976562 C 355.953125 249.375 347.855469 249.375 347.855469 243.976562 C 347.855469 238.574219 355.953125 238.574219 355.953125 243.976562 "/>
<path style=" stroke:none;fill-rule:nonzero;fill:rgb(0%,0%,100%);fill-opacity:1;" d="M 362.449219 298.125 C 362.449219 303.527344 354.351562 303.527344 354.351562 298.125 C 354.351562 292.726562 362.449219 292.726562 362.449219 298.125 "/>
<path style=" stroke:none;fill-rule:nonzero;fill:rgb(0%,80.392157%,0%);fill-opacity:1;" d="M 337.425781 185.707031 C 337.425781 191.109375 329.324219 191.109375 329.324219 185.707031 C 329.324219 180.308594 337.425781 180.308594 337.425781 185.707031 "/>
<path style=" stroke:none;fill-rule:nonzero;fill:rgb(0%,80.392157%,0%);fill-opacity:1;" d="M 304.460938 122.964844 C 304.460938 128.367188 296.363281 128.367188 296.363281 122.964844 C 296.363281 117.566406 304.460938 117.566406 304.460938 122.964844 "/>
<path style=" stroke:none;fill-rule:nonzero;fill:rgb(0%,80.392157%,0%);fill-opacity:1;" d="M 333.613281 185.824219 C 333.613281 191.222656 325.511719 191.222656 325.511719 185.824219 C 325.511719 180.421875 333.613281 180.421875 333.613281 185.824219 "/>
<path style=" stroke:none;fill-rule:nonzero;fill:rgb(0%,0%,100%);fill-opacity:1;" d="M 350.074219 249.742188 C 350.074219 255.144531 341.972656 255.144531 341.972656 249.742188 C 341.972656 244.34375 350.074219 244.34375 350.074219 249.742188 "/>
<path style=" stroke:none;fill-rule:nonzero;fill:rgb(0%,0%,100%);fill-opacity:1;" d="M 336.804688 312.800781 C 336.804688 318.199219 328.707031 318.199219 328.707031 312.800781 C 328.707031 307.398438 336.804688 307.398438 336.804688 312.800781 "/>
<path style="fill:none;stroke-width:0.75;stroke-linecap:round;stroke-linejoin:round;stroke:rgb(0%,0%,0%);stroke-opacity:1;stroke-miterlimit:10;" d="M 250.722656 84.8125 L 237.78125 69.605469 "/>
<path style="fill:none;stroke-width:0.75;stroke-linecap:round;stroke-linejoin:round;stroke:rgb(0%,0%,0%);stroke-opacity:1;stroke-miterlimit:10;" d="M 250.722656 84.8125 L 241.949219 80.789062 "/>
<path style="fill:none;stroke-width:0.75;stroke-linecap:round;stroke-linejoin:round;stroke:rgb(0%,0%,0%);stroke-opacity:1;stroke-miterlimit:10;" d="M 250.722656 84.8125 L 302.109375 121.421875 "/>
<path style="fill:none;stroke-width:0.75;stroke-linecap:round;stroke-linejoin:round;stroke:rgb(0%,0%,0%);stroke-opacity:1;stroke-miterlimit:10;" d="M 250.722656 84.8125 L 276.300781 114.289062 "/>
<path style="fill:none;stroke-width:0.75;stroke-linecap:round;stroke-linejoin:round;stroke:rgb(0%,0%,0%);stroke-opacity:1;stroke-miterlimit:10;" d="M 250.722656 84.8125 L 247.453125 79.074219 "/>
<path style="fill:none;stroke-width:0.75;stroke-linecap:round;stroke-linejoin:round;stroke:rgb(0%,0%,0%);stroke-opacity:1;stroke-miterlimit:10;" d="M 250.722656 84.8125 L 289.636719 112.722656 "/>
<path style="fill:none;stroke-width:0.75;stroke-linecap:round;stroke-linejoin:round;stroke:rgb(0%,0%,0%);stroke-opacity:1;stroke-miterlimit:10;" d="M 478.898438 106.019531 L 480.695312 109.15625 "/>
<path style="fill:none;stroke-width:0.75;stroke-linecap:round;stroke-linejoin:round;stroke:rgb(0%,0%,0%);stroke-opacity:1;stroke-miterlimit:10;" d="M 478.898438 106.019531 L 374.125 181.496094 "/>
<path style="fill:none;stroke-width:0.75;stroke-linecap:round;stroke-linejoin:round;stroke:rgb(0%,0%,0%);stroke-opacity:1;stroke-miterlimit:10;" d="M 478.898438 106.019531 L 521.019531 68.800781 "/>
<path style="fill:none;stroke-width:0.75;stroke-linecap:round;stroke-linejoin:round;stroke:rgb(0%,0%,0%);stroke-opacity:1;stroke-miterlimit:10;" d="M 331.46875 170.417969 L 348.066406 169.753906 "/>
<path style="fill:none;stroke-width:0.75;stroke-linecap:round;stroke-linejoin:round;stroke:rgb(0%,0%,0%);stroke-opacity:1;stroke-miterlimit:10;" d="M 331.46875 170.417969 L 321.007812 189.011719 "/>
<path style="fill:none;stroke-width:0.75;stroke-linecap:round;stroke-linejoin:round;stroke:rgb(0%,0%,0%);stroke-opacity:1;stroke-miterlimit:10;" d="M 331.46875 170.417969 L 312.28125 169.335938 "/>
<path style="fill:none;stroke-width:0.75;stroke-linecap:round;stroke-linejoin:round;stroke:rgb(0%,0%,0%);stroke-opacity:1;stroke-miterlimit:10;" d="M 331.46875 170.417969 L 333.375 185.707031 "/>
<path style="fill:none;stroke-width:0.75;stroke-linecap:round;stroke-linejoin:round;stroke:rgb(0%,0%,0%);stroke-opacity:1;stroke-miterlimit:10;" d="M 331.46875 170.417969 L 300.414062 122.964844 "/>
<path style="fill:none;stroke-width:0.75;stroke-linecap:round;stroke-linejoin:round;stroke:rgb(0%,0%,0%);stroke-opacity:1;stroke-miterlimit:10;" d="M 331.46875 170.417969 L 329.5625 185.824219 "/>
<path style="fill:none;stroke-width:0.75;stroke-linecap:round;stroke-linejoin:round;stroke:rgb(0%,0%,0%);stroke-opacity:1;stroke-miterlimit:10;" d="M 351.058594 275.832031 L 376.917969 245.773438 "/>
<path style="fill:none;stroke-width:0.75;stroke-linecap:round;stroke-linejoin:round;stroke:rgb(0%,0%,0%);stroke-opacity:1;stroke-miterlimit:10;" d="M 351.058594 275.832031 L 351.90625 243.976562 "/>
<path style="fill:none;stroke-width:0.75;stroke-linecap:round;stroke-linejoin:round;stroke:rgb(0%,0%,0%);stroke-opacity:1;stroke-miterlimit:10;" d="M 351.058594 275.832031 L 358.402344 298.125 "/>
<path style="fill:none;stroke-width:0.75;stroke-linecap:round;stroke-linejoin:round;stroke:rgb(0%,0%,0%);stroke-opacity:1;stroke-miterlimit:10;" d="M 351.058594 275.832031 L 346.023438 249.742188 "/>
<path style="fill:none;stroke-width:0.75;stroke-linecap:round;stroke-linejoin:round;stroke:rgb(0%,0%,0%);stroke-opacity:1;stroke-miterlimit:10;" d="M 351.058594 275.832031 L 332.757812 312.800781 "/>
<path style="fill-rule:nonzero;fill:rgb(100%,100%,100%);fill-opacity:1;stroke-width:0.75;stroke-linecap:round;stroke-linejoin:round;stroke:rgb(0%,0%,0%);stroke-opacity:1;stroke-miterlimit:10;" d="M 240.878906 90.421875 L 260.570312 90.421875 L 260.570312 79.207031 L 240.878906 79.207031 Z M 240.878906 90.421875 "/>
<g style="fill:rgb(0%,0%,0%);fill-opacity:1;">
  <use xlink:href="#glyph3-1" x="243.222656" y="87.332031"/>
  <use xlink:href="#glyph3-2" x="250.69043" y="87.332031"/>
</g>
<path style="fill-rule:nonzero;fill:rgb(100%,100%,100%);fill-opacity:1;stroke-width:0.75;stroke-linecap:round;stroke-linejoin:round;stroke:rgb(0%,0%,0%);stroke-opacity:1;stroke-miterlimit:10;" d="M 469.421875 111.628906 L 488.371094 111.628906 L 488.371094 100.410156 L 469.421875 100.410156 Z M 469.421875 111.628906 "/>
<g style="fill:rgb(0%,0%,0%);fill-opacity:1;">
  <use xlink:href="#glyph3-1" x="471.898438" y="108.539062"/>
  <use xlink:href="#glyph3-3" x="479.366211" y="108.539062"/>
</g>
<path style="fill-rule:nonzero;fill:rgb(100%,100%,100%);fill-opacity:1;stroke-width:0.75;stroke-linecap:round;stroke-linejoin:round;stroke:rgb(0%,0%,0%);stroke-opacity:1;stroke-miterlimit:10;" d="M 321.996094 176.027344 L 340.941406 176.027344 L 340.941406 164.808594 L 321.996094 164.808594 Z M 321.996094 176.027344 "/>
<g style="fill:rgb(0%,0%,0%);fill-opacity:1;">
  <use xlink:href="#glyph3-4" x="324.46875" y="172.9375"/>
  <use xlink:href="#glyph3-2" x="330.871094" y="172.9375"/>
</g>
<path style="fill-rule:nonzero;fill:rgb(100%,100%,100%);fill-opacity:1;stroke-width:0.75;stroke-linecap:round;stroke-linejoin:round;stroke:rgb(0%,0%,0%);stroke-opacity:1;stroke-miterlimit:10;" d="M 341.960938 281.441406 L 360.160156 281.441406 L 360.160156 270.222656 L 341.960938 270.222656 Z M 341.960938 281.441406 "/>
<g style="fill:rgb(0%,0%,0%);fill-opacity:1;">
  <use xlink:href="#glyph3-4" x="344.558594" y="278.351562"/>
  <use xlink:href="#glyph3-3" x="350.960938" y="278.351562"/>
</g>
</g>
</svg>
