<?xml version="1.0" encoding="UTF-8"?>
<svg xmlns="http://www.w3.org/2000/svg" xmlns:xlink="http://www.w3.org/1999/xlink" width="504pt" height="504pt" viewBox="0 0 504 504" version="1.1">
<defs>
<g>
<symbol overflow="visible" id="glyph0-0">
<path style="stroke:none;" d=""/>
</symbol>
<symbol overflow="visible" id="glyph0-1">
<path style="stroke:none;" d="M 4.453125 -3 C 4.453125 -5.15625 3.78125 -6.234375 2.421875 -6.234375 C 1.078125 -6.234375 0.375 -5.140625 0.375 -3.046875 C 0.375 -0.953125 1.078125 0.125 2.421875 0.125 C 3.734375 0.125 4.453125 -0.953125 4.453125 -3 Z M 3.671875 -3.0625 C 3.671875 -1.296875 3.265625 -0.515625 2.40625 -0.515625 C 1.578125 -0.515625 1.171875 -1.34375 1.171875 -3.046875 C 1.171875 -4.75 1.578125 -5.546875 2.421875 -5.546875 C 3.25 -5.546875 3.671875 -4.734375 3.671875 -3.0625 Z M 3.671875 -3.0625 "/>
</symbol>
<symbol overflow="visible" id="glyph0-2">
<path style="stroke:none;" d="M 3.046875 0 L 3.046875 -6.234375 L 2.546875 -6.234375 C 2.265625 -5.28125 2.09375 -5.140625 0.890625 -5 L 0.890625 -4.4375 L 2.28125 -4.4375 L 2.28125 0 Z M 3.046875 0 "/>
</symbol>
<symbol overflow="visible" id="glyph0-3">
<path style="stroke:none;" d="M 4.5 -4.40625 C 4.5 -5.46875 3.671875 -6.234375 2.5 -6.234375 C 1.21875 -6.234375 0.484375 -5.59375 0.4375 -4.078125 L 1.21875 -4.078125 C 1.28125 -5.125 1.703125 -5.5625 2.46875 -5.5625 C 3.171875 -5.5625 3.703125 -5.0625 3.703125 -4.390625 C 3.703125 -3.890625 3.40625 -3.46875 2.859375 -3.15625 L 2.046875 -2.703125 C 0.75 -1.96875 0.375 -1.375 0.296875 0 L 4.453125 0 L 4.453125 -0.765625 L 1.171875 -0.765625 C 1.25 -1.28125 1.53125 -1.59375 2.296875 -2.046875 L 3.171875 -2.53125 C 4.046875 -2.984375 4.5 -3.640625 4.5 -4.40625 Z M 4.5 -4.40625 "/>
</symbol>
<symbol overflow="visible" id="glyph0-4">
<path style="stroke:none;" d="M 5.953125 -2.34375 L 5.109375 -2.34375 C 4.921875 -1.125 4.40625 -0.5625 3.328125 -0.5625 C 2.046875 -0.5625 1.234375 -1.546875 1.234375 -3.140625 C 1.234375 -4.78125 2.015625 -5.84375 3.25 -5.84375 C 4.25 -5.84375 4.78125 -5.40625 4.984375 -4.421875 L 5.828125 -4.421875 C 5.5625 -5.828125 4.765625 -6.578125 3.359375 -6.578125 C 1.40625 -6.578125 0.421875 -5 0.421875 -3.125 C 0.421875 -1.265625 1.4375 0.15625 3.3125 0.15625 C 4.875 0.15625 5.765625 -0.671875 5.953125 -2.34375 Z M 5.953125 -2.34375 "/>
</symbol>
<symbol overflow="visible" id="glyph0-5">
<path style="stroke:none;" d="M 4.28125 0 L 4.28125 -3.484375 C 4.28125 -4.25 3.71875 -4.734375 2.828125 -4.734375 C 2.171875 -4.734375 1.78125 -4.546875 1.34375 -3.96875 L 1.34375 -6.40625 L 0.609375 -6.40625 L 0.609375 0 L 1.34375 0 L 1.34375 -2.546875 C 1.34375 -3.484375 1.84375 -4.09375 2.59375 -4.09375 C 3.109375 -4.09375 3.546875 -3.796875 3.546875 -3.1875 L 3.546875 0 Z M 4.28125 0 "/>
</symbol>
<symbol overflow="visible" id="glyph0-6">
<path style="stroke:none;" d="M 1.328125 0 L 1.328125 -6.40625 L 0.59375 -6.40625 L 0.59375 0 Z M 1.328125 0 "/>
</symbol>
<symbol overflow="visible" id="glyph0-7">
<path style="stroke:none;" d="M 4.703125 -0.015625 L 4.703125 -0.578125 C 4.625 -0.546875 4.59375 -0.546875 4.546875 -0.546875 C 4.296875 -0.546875 4.15625 -0.6875 4.15625 -0.921875 L 4.15625 -3.484375 C 4.15625 -4.296875 3.546875 -4.734375 2.421875 -4.734375 C 1.296875 -4.734375 0.609375 -4.3125 0.578125 -3.25 L 1.3125 -3.25 C 1.375 -3.8125 1.703125 -4.0625 2.390625 -4.0625 C 3.046875 -4.0625 3.421875 -3.8125 3.421875 -3.375 L 3.421875 -3.1875 C 3.421875 -2.875 3.234375 -2.75 2.65625 -2.671875 C 1.625 -2.546875 1.453125 -2.5 1.171875 -2.390625 C 0.640625 -2.171875 0.375 -1.765625 0.375 -1.203125 C 0.375 -0.359375 0.953125 0.125 1.875 0.125 C 2.46875 0.125 3.046875 -0.109375 3.453125 -0.546875 C 3.53125 -0.1875 3.84375 0.0625 4.203125 0.0625 C 4.359375 0.0625 4.46875 0.046875 4.703125 -0.015625 Z M 3.421875 -1.59375 C 3.421875 -0.9375 2.75 -0.515625 2.046875 -0.515625 C 1.46875 -0.515625 1.140625 -0.71875 1.140625 -1.21875 C 1.140625 -1.703125 1.453125 -1.90625 2.25 -2.015625 C 3.015625 -2.125 3.171875 -2.15625 3.421875 -2.28125 Z M 3.421875 -1.59375 "/>
</symbol>
<symbol overflow="visible" id="glyph0-8">
<path style="stroke:none;" d="M 6.6875 0 L 6.6875 -3.453125 C 6.6875 -4.28125 6.234375 -4.734375 5.359375 -4.734375 C 4.75 -4.734375 4.375 -4.5625 3.953125 -4.03125 C 3.671875 -4.53125 3.3125 -4.734375 2.703125 -4.734375 C 2.09375 -4.734375 1.6875 -4.515625 1.296875 -3.953125 L 1.296875 -4.609375 L 0.625 -4.609375 L 0.625 0 L 1.359375 0 L 1.359375 -2.890625 C 1.359375 -3.5625 1.84375 -4.09375 2.4375 -4.09375 C 2.984375 -4.09375 3.296875 -3.765625 3.296875 -3.171875 L 3.296875 0 L 4.015625 0 L 4.015625 -2.890625 C 4.015625 -3.5625 4.515625 -4.09375 5.109375 -4.09375 C 5.640625 -4.09375 5.953125 -3.75 5.953125 -3.171875 L 5.953125 0 Z M 6.6875 0 "/>
</symbol>
<symbol overflow="visible" id="glyph0-9">
<path style="stroke:none;" d="M 4.203125 -4.609375 L 3.40625 -4.609375 L 2.140625 -1.015625 L 0.953125 -4.609375 L 0.171875 -4.609375 L 1.734375 0.015625 L 1.453125 0.75 C 1.328125 1.078125 1.171875 1.203125 0.859375 1.203125 C 0.75 1.203125 0.640625 1.171875 0.46875 1.140625 L 0.46875 1.796875 C 0.625 1.875 0.78125 1.921875 0.96875 1.921875 C 1.484375 1.921875 1.90625 1.625 2.15625 0.96875 Z M 4.203125 -4.609375 "/>
</symbol>
<symbol overflow="visible" id="glyph0-10">
<path style="stroke:none;" d="M 4.359375 0 L 4.359375 -6.40625 L 3.625 -6.40625 L 3.625 -4.03125 C 3.3125 -4.5 2.828125 -4.734375 2.203125 -4.734375 C 1.015625 -4.734375 0.234375 -3.8125 0.234375 -2.34375 C 0.234375 -0.796875 1 0.125 2.234375 0.125 C 2.875 0.125 3.3125 -0.109375 3.703125 -0.671875 L 3.703125 0 Z M 3.625 -2.28125 C 3.625 -1.21875 3.109375 -0.546875 2.34375 -0.546875 C 1.53125 -0.546875 1 -1.234375 1 -2.3125 C 1 -3.375 1.53125 -4.0625 2.328125 -4.0625 C 3.125 -4.0625 3.625 -3.359375 3.625 -2.28125 Z M 3.625 -2.28125 "/>
</symbol>
<symbol overflow="visible" id="glyph0-11">
<path style="stroke:none;" d="M 1.34375 0 L 1.34375 -4.609375 L 0.609375 -4.609375 L 0.609375 0 Z M 1.4375 -5.296875 L 1.4375 -6.21875 L 0.53125 -6.21875 L 0.53125 -5.296875 Z M 1.4375 -5.296875 "/>
</symbol>
<symbol overflow="visible" id="glyph0-12">
<path style="stroke:none;" d="M 4.515625 -2.09375 C 4.515625 -2.765625 4.453125 -3.1875 4.328125 -3.53125 C 4.03125 -4.28125 3.328125 -4.734375 2.46875 -4.734375 C 1.171875 -4.734375 0.359375 -3.796875 0.359375 -2.28125 C 0.359375 -0.765625 1.15625 0.125 2.453125 0.125 C 3.5 0.125 4.234375 -0.46875 4.421875 -1.40625 L 3.671875 -1.40625 C 3.46875 -0.796875 3.0625 -0.546875 2.46875 -0.546875 C 1.703125 -0.546875 1.140625 -1.03125 1.125 -2.09375 Z M 3.734375 -2.75 C 3.734375 -2.75 3.734375 -2.703125 3.71875 -2.6875 L 1.140625 -2.6875 C 1.203125 -3.515625 1.71875 -4.0625 2.453125 -4.0625 C 3.171875 -4.0625 3.734375 -3.46875 3.734375 -2.75 Z M 3.734375 -2.75 "/>
</symbol>
<symbol overflow="visible" id="glyph0-13">
<path style="stroke:none;" d="M 5.875 -3.203125 C 5.875 -5.203125 4.875 -6.40625 3.25 -6.40625 L 0.78125 -6.40625 L 0.78125 0 L 3.25 0 C 4.875 0 5.875 -1.21875 5.875 -3.203125 Z M 5.046875 -3.203125 C 5.046875 -1.578125 4.375 -0.71875 3.109375 -0.71875 L 1.59375 -0.71875 L 1.59375 -5.6875 L 3.109375 -5.6875 C 4.375 -5.6875 5.046875 -4.84375 5.046875 -3.203125 Z M 5.046875 -3.203125 "/>
</symbol>
<symbol overflow="visible" id="glyph0-14">
<path style="stroke:none;" d="M 4.59375 -2.359375 C 4.59375 -3.859375 3.84375 -4.734375 2.625 -4.734375 C 2 -4.734375 1.546875 -4.5 1.203125 -3.984375 L 1.203125 -6.40625 L 0.46875 -6.40625 L 0.46875 0 L 1.140625 0 L 1.140625 -0.65625 C 1.484375 -0.125 1.953125 0.125 2.59375 0.125 C 3.8125 0.125 4.59375 -0.859375 4.59375 -2.359375 Z M 3.828125 -2.3125 C 3.828125 -1.265625 3.296875 -0.546875 2.484375 -0.546875 C 1.71875 -0.546875 1.203125 -1.265625 1.203125 -2.3125 C 1.203125 -3.390625 1.71875 -4.09375 2.484375 -4.0625 C 3.3125 -4.0625 3.828125 -3.34375 3.828125 -2.3125 Z M 3.828125 -2.3125 "/>
</symbol>
<symbol overflow="visible" id="glyph0-15">
<path style="stroke:none;" d="M 4.203125 -1.578125 L 3.453125 -1.578125 C 3.328125 -0.84375 2.953125 -0.546875 2.328125 -0.546875 C 1.515625 -0.546875 1.03125 -1.171875 1.03125 -2.265625 C 1.03125 -3.40625 1.515625 -4.0625 2.3125 -4.0625 C 2.921875 -4.0625 3.3125 -3.703125 3.40625 -3.0625 L 4.140625 -3.0625 C 4.0625 -4.1875 3.359375 -4.734375 2.328125 -4.734375 C 1.078125 -4.734375 0.265625 -3.796875 0.265625 -2.265625 C 0.265625 -0.78125 1.0625 0.125 2.3125 0.125 C 3.40625 0.125 4.109375 -0.53125 4.203125 -1.578125 Z M 4.203125 -1.578125 "/>
</symbol>
<symbol overflow="visible" id="glyph0-16">
<path style="stroke:none;" d="M 2.234375 0 L 2.234375 -0.609375 C 2.140625 -0.59375 2.015625 -0.578125 1.875 -0.578125 C 1.5625 -0.578125 1.484375 -0.671875 1.484375 -1 L 1.484375 -4.015625 L 2.234375 -4.015625 L 2.234375 -4.609375 L 1.484375 -4.609375 L 1.484375 -5.875 L 0.75 -5.875 L 0.75 -4.609375 L 0.125 -4.609375 L 0.125 -4.015625 L 0.75 -4.015625 L 0.75 -0.671875 C 0.75 -0.203125 1.0625 0.0625 1.640625 0.0625 C 1.8125 0.0625 1.984375 0.046875 2.234375 0 Z M 2.234375 0 "/>
</symbol>
<symbol overflow="visible" id="glyph0-17">
<path style="stroke:none;" d="M 2.828125 -3.96875 L 2.828125 -4.71875 C 2.703125 -4.734375 2.640625 -4.734375 2.546875 -4.734375 C 2.0625 -4.734375 1.703125 -4.453125 1.28125 -3.78125 L 1.28125 -4.609375 L 0.609375 -4.609375 L 0.609375 0 L 1.34375 0 L 1.34375 -2.390625 C 1.34375 -3.4375 1.6875 -3.953125 2.828125 -3.96875 Z M 2.828125 -3.96875 "/>
</symbol>
<symbol overflow="visible" id="glyph0-18">
<path style="stroke:none;" d="M 2.265625 -4.015625 L 2.265625 -4.609375 L 1.5 -4.609375 L 1.5 -5.328125 C 1.5 -5.640625 1.6875 -5.796875 2.015625 -5.796875 C 2.078125 -5.796875 2.109375 -5.796875 2.265625 -5.78125 L 2.265625 -6.390625 C 2.109375 -6.4375 2 -6.4375 1.859375 -6.4375 C 1.171875 -6.4375 0.78125 -6.046875 0.78125 -5.390625 L 0.78125 -4.609375 L 0.15625 -4.609375 L 0.15625 -4.015625 L 0.78125 -4.015625 L 0.78125 0 L 1.5 0 L 1.5 -4.015625 Z M 2.265625 -4.015625 "/>
</symbol>
<symbol overflow="visible" id="glyph0-19">
<path style="stroke:none;" d="M 4.03125 -1.296875 C 4.03125 -1.984375 3.65625 -2.328125 2.734375 -2.546875 L 2.03125 -2.703125 C 1.4375 -2.84375 1.171875 -3.046875 1.171875 -3.375 C 1.171875 -3.796875 1.5625 -4.0625 2.15625 -4.0625 C 2.75 -4.0625 3.0625 -3.8125 3.078125 -3.328125 L 3.859375 -3.328125 C 3.84375 -4.234375 3.25 -4.734375 2.1875 -4.734375 C 1.109375 -4.734375 0.40625 -4.1875 0.40625 -3.328125 C 0.40625 -2.609375 0.78125 -2.265625 1.875 -2 L 2.5625 -1.84375 C 3.0625 -1.71875 3.265625 -1.5625 3.265625 -1.234375 C 3.265625 -0.796875 2.84375 -0.546875 2.203125 -0.546875 C 1.546875 -0.546875 1.171875 -0.703125 1.078125 -1.40625 L 0.296875 -1.40625 C 0.328125 -0.34375 0.9375 0.125 2.140625 0.125 C 3.296875 0.125 4.03125 -0.40625 4.03125 -1.296875 Z M 4.03125 -1.296875 "/>
</symbol>
<symbol overflow="visible" id="glyph0-20">
<path style="stroke:none;" d="M 4.28125 0 L 4.28125 -3.484375 C 4.28125 -4.25 3.71875 -4.734375 2.828125 -4.734375 C 2.140625 -4.734375 1.703125 -4.484375 1.296875 -3.828125 L 1.296875 -4.609375 L 0.609375 -4.609375 L 0.609375 0 L 1.34375 0 L 1.34375 -2.546875 C 1.34375 -3.484375 1.859375 -4.09375 2.609375 -4.09375 C 3.1875 -4.09375 3.546875 -3.75 3.546875 -3.1875 L 3.546875 0 Z M 4.28125 0 "/>
</symbol>
<symbol overflow="visible" id="glyph0-21">
<path style="stroke:none;" d="M 4.484375 -2.265625 C 4.484375 -3.859375 3.71875 -4.734375 2.390625 -4.734375 C 1.09375 -4.734375 0.3125 -3.859375 0.3125 -2.3125 C 0.3125 -0.75 1.09375 0.125 2.40625 0.125 C 3.6875 0.125 4.484375 -0.75 4.484375 -2.265625 Z M 3.71875 -2.28125 C 3.71875 -1.203125 3.203125 -0.546875 2.40625 -0.546875 C 1.578125 -0.546875 1.078125 -1.1875 1.078125 -2.3125 C 1.078125 -3.40625 1.578125 -4.0625 2.40625 -4.0625 C 3.234375 -4.0625 3.71875 -3.421875 3.71875 -2.28125 Z M 3.71875 -2.28125 "/>
</symbol>
<symbol overflow="visible" id="glyph0-22">
<path style="stroke:none;" d="M 4.234375 0 L 4.234375 -4.609375 L 3.515625 -4.609375 L 3.515625 -2.0625 C 3.515625 -1.125 3.015625 -0.515625 2.25 -0.515625 C 1.671875 -0.515625 1.296875 -0.859375 1.296875 -1.421875 L 1.296875 -4.609375 L 0.578125 -4.609375 L 0.578125 -1.125 C 0.578125 -0.359375 1.140625 0.125 2.046875 0.125 C 2.71875 0.125 3.15625 -0.109375 3.578125 -0.71875 L 3.578125 0 Z M 4.234375 0 "/>
</symbol>
<symbol overflow="visible" id="glyph0-23">
<path style="stroke:none;" d="M 2.5 -2.109375 L 2.5 -2.75 L 0.40625 -2.75 L 0.40625 -2.109375 Z M 2.5 -2.109375 "/>
</symbol>
<symbol overflow="visible" id="glyph0-24">
<path style="stroke:none;" d="M 5.21875 -5.6875 L 5.21875 -6.40625 L 0.1875 -6.40625 L 0.1875 -5.6875 L 2.296875 -5.6875 L 2.296875 0 L 3.109375 0 L 3.109375 -5.6875 Z M 5.21875 -5.6875 "/>
</symbol>
<symbol overflow="visible" id="glyph0-25">
<path style="stroke:none;" d="M 5.390625 0 L 5.390625 -0.71875 L 1.609375 -0.71875 L 1.609375 -2.921875 L 5.109375 -2.921875 L 5.109375 -3.640625 L 1.609375 -3.640625 L 1.609375 -5.6875 L 5.234375 -5.6875 L 5.234375 -6.40625 L 0.796875 -6.40625 L 0.796875 0 Z M 5.390625 0 "/>
</symbol>
<symbol overflow="visible" id="glyph0-26">
<path style="stroke:none;" d="M 6.234375 0 L 6.234375 -3.390625 L 3.5625 -3.390625 L 3.5625 -2.671875 L 5.515625 -2.671875 L 5.515625 -2.484375 C 5.515625 -1.34375 4.671875 -0.5625 3.5 -0.5625 C 2.046875 -0.5625 1.203125 -1.625 1.203125 -3.1875 C 1.203125 -4.765625 2.109375 -5.84375 3.453125 -5.84375 C 4.4375 -5.84375 5.140625 -5.296875 5.3125 -4.46875 L 6.15625 -4.46875 C 5.921875 -5.765625 4.9375 -6.578125 3.46875 -6.578125 C 1.5 -6.578125 0.390625 -5.0625 0.390625 -3.140625 C 0.390625 -1.171875 1.59375 0.15625 3.328125 0.15625 C 4.203125 0.15625 4.890625 -0.15625 5.515625 -0.84375 L 5.71875 0 Z M 6.234375 0 "/>
</symbol>
<symbol overflow="visible" id="glyph0-27">
<path style="stroke:none;" d="M 5.671875 0 L 5.671875 -6.40625 L 4.84375 -6.40625 L 4.84375 -3.640625 L 1.546875 -3.640625 L 1.546875 -6.40625 L 0.734375 -6.40625 L 0.734375 0 L 1.546875 0 L 1.546875 -2.921875 L 4.84375 -2.921875 L 4.84375 0 Z M 5.671875 0 "/>
</symbol>
<symbol overflow="visible" id="glyph0-28">
<path style="stroke:none;" d="M 4.296875 -0.75 L 4.296875 -4.609375 L 3.625 -4.609375 L 3.625 -3.9375 C 3.25 -4.484375 2.8125 -4.734375 2.21875 -4.734375 C 1.046875 -4.734375 0.25 -3.75 0.25 -2.265625 C 0.25 -0.8125 1.078125 0.125 2.15625 0.125 C 2.734375 0.125 3.140625 -0.109375 3.625 -0.6875 L 3.625 -0.390625 C 3.625 0.828125 3.125 1.296875 2.265625 1.296875 C 1.6875 1.296875 1.234375 1.09375 1.15625 0.53125 L 0.40625 0.53125 C 0.484375 1.40625 1.15625 1.921875 2.25 1.921875 C 3.6875 1.921875 4.296875 1.28125 4.296875 -0.75 Z M 3.546875 -2.28125 C 3.546875 -1.171875 3.078125 -0.546875 2.3125 -0.546875 C 1.5 -0.546875 1.015625 -1.1875 1.015625 -2.3125 C 1.015625 -3.40625 1.515625 -4.0625 2.296875 -4.0625 C 3.09375 -4.0625 3.546875 -3.390625 3.546875 -2.28125 Z M 3.546875 -2.28125 "/>
</symbol>
<symbol overflow="visible" id="glyph0-29">
<path style="stroke:none;" d="M 4.6875 0 L 4.6875 -0.71875 L 1.515625 -0.71875 L 1.515625 -6.40625 L 0.703125 -6.40625 L 0.703125 0 Z M 4.6875 0 "/>
</symbol>
<symbol overflow="visible" id="glyph0-30">
<path style="stroke:none;" d="M 5.6875 0 L 5.6875 -6.40625 L 4.90625 -6.40625 L 4.90625 -1.171875 L 1.5625 -6.40625 L 0.671875 -6.40625 L 0.671875 0 L 1.4375 0 L 1.4375 -5.203125 L 4.765625 0 Z M 5.6875 0 "/>
</symbol>
<symbol overflow="visible" id="glyph0-31">
<path style="stroke:none;" d="M 4.59375 -2.265625 C 4.59375 -3.8125 3.84375 -4.734375 2.625 -4.734375 C 2 -4.734375 1.5 -4.453125 1.15625 -3.921875 L 1.15625 -4.609375 L 0.484375 -4.609375 L 0.484375 1.921875 L 1.21875 1.921875 L 1.21875 -0.546875 C 1.59375 -0.078125 2.03125 0.125 2.625 0.125 C 3.8125 0.125 4.59375 -0.796875 4.59375 -2.265625 Z M 3.828125 -2.28125 C 3.828125 -1.234375 3.296875 -0.546875 2.5 -0.546875 C 1.71875 -0.546875 1.21875 -1.1875 1.21875 -2.265625 C 1.21875 -3.359375 1.71875 -4.0625 2.5 -4.0625 C 3.3125 -4.0625 3.828125 -3.375 3.828125 -2.28125 Z M 3.828125 -2.28125 "/>
</symbol>
<symbol overflow="visible" id="glyph0-32">
<path style="stroke:none;" d="M 5.46875 -1.765625 C 5.46875 -2.546875 4.96875 -3.125 4.09375 -3.375 L 2.484375 -3.796875 C 1.71875 -4 1.4375 -4.25 1.4375 -4.75 C 1.4375 -5.40625 2 -5.890625 2.875 -5.890625 C 3.890625 -5.890625 4.46875 -5.421875 4.46875 -4.578125 L 5.25 -4.578125 C 5.25 -5.84375 4.375 -6.578125 2.890625 -6.578125 C 1.484375 -6.578125 0.609375 -5.796875 0.609375 -4.640625 C 0.609375 -3.859375 1.03125 -3.359375 1.875 -3.140625 L 3.46875 -2.71875 C 4.28125 -2.5 4.640625 -2.1875 4.640625 -1.6875 C 4.640625 -0.96875 4.109375 -0.5625 3.015625 -0.5625 C 1.796875 -0.5625 1.203125 -1.171875 1.203125 -2.078125 L 0.421875 -2.078125 C 0.421875 -0.578125 1.4375 0.15625 2.953125 0.15625 C 4.578125 0.15625 5.46875 -0.609375 5.46875 -1.765625 Z M 5.46875 -1.765625 "/>
</symbol>
<symbol overflow="visible" id="glyph0-33">
<path style="stroke:none;" d="M 8.171875 -6.40625 L 7.25 -6.40625 L 6.078125 -1.203125 L 4.625 -6.40625 L 3.734375 -6.40625 L 2.3125 -1.203125 L 1.109375 -6.40625 L 0.1875 -6.40625 L 1.84375 0 L 2.734375 0 L 4.171875 -5.265625 L 5.640625 0 L 6.546875 0 Z M 8.171875 -6.40625 "/>
</symbol>
<symbol overflow="visible" id="glyph0-34">
<path style="stroke:none;" d="M 5.421875 -4.53125 C 5.421875 -5.734375 4.71875 -6.40625 3.453125 -6.40625 L 0.796875 -6.40625 L 0.796875 0 L 1.625 0 L 1.625 -2.71875 L 3.640625 -2.71875 C 4.6875 -2.71875 5.421875 -3.46875 5.421875 -4.53125 Z M 4.578125 -4.5625 C 4.578125 -3.859375 4.109375 -3.4375 3.328125 -3.4375 L 1.625 -3.4375 L 1.625 -5.6875 L 3.328125 -5.6875 C 4.109375 -5.6875 4.578125 -5.265625 4.578125 -4.5625 Z M 4.578125 -4.5625 "/>
</symbol>
<symbol overflow="visible" id="glyph1-0">
<path style="stroke:none;" d=""/>
</symbol>
<symbol overflow="visible" id="glyph1-1">
<path style="stroke:none;" d="M 6.375 -7.109375 L 6.375 -8.015625 L 0.984375 -8.015625 L 0.984375 0 L 2.015625 0 L 2.015625 -3.65625 L 5.84375 -3.65625 L 5.84375 -4.546875 L 2.015625 -4.546875 L 2.015625 -7.109375 Z M 6.375 -7.109375 "/>
</symbol>
<symbol overflow="visible" id="glyph1-2">
<path style="stroke:none;" d="M 3.53125 -4.96875 L 3.53125 -5.890625 C 3.375 -5.921875 3.296875 -5.921875 3.171875 -5.921875 C 2.578125 -5.921875 2.140625 -5.578125 1.609375 -4.71875 L 1.609375 -5.765625 L 0.765625 -5.765625 L 0.765625 0 L 1.6875 0 L 1.6875 -2.984375 C 1.6875 -4.296875 2.109375 -4.9375 3.53125 -4.96875 Z M 3.53125 -4.96875 "/>
</symbol>
<symbol overflow="visible" id="glyph1-3">
<path style="stroke:none;" d="M 5.640625 -2.625 C 5.640625 -3.453125 5.578125 -3.984375 5.40625 -4.40625 C 5.03125 -5.359375 4.15625 -5.921875 3.078125 -5.921875 C 1.46875 -5.921875 0.4375 -4.734375 0.4375 -2.84375 C 0.4375 -0.953125 1.4375 0.171875 3.0625 0.171875 C 4.375 0.171875 5.296875 -0.578125 5.515625 -1.75 L 4.59375 -1.75 C 4.34375 -0.984375 3.828125 -0.6875 3.09375 -0.6875 C 2.140625 -0.6875 1.421875 -1.296875 1.390625 -2.625 Z M 4.65625 -3.4375 C 4.65625 -3.4375 4.65625 -3.390625 4.65625 -3.359375 L 1.421875 -3.359375 C 1.5 -4.390625 2.140625 -5.078125 3.0625 -5.078125 C 3.96875 -5.078125 4.65625 -4.328125 4.65625 -3.4375 Z M 4.65625 -3.4375 "/>
</symbol>
<symbol overflow="visible" id="glyph1-4">
<path style="stroke:none;" d="M 5.4375 2.390625 L 5.4375 -5.765625 L 4.625 -5.765625 L 4.625 -5 C 4.203125 -5.59375 3.546875 -5.921875 2.796875 -5.921875 C 1.28125 -5.921875 0.28125 -4.734375 0.28125 -2.8125 C 0.28125 -0.953125 1.234375 0.171875 2.75 0.171875 C 3.546875 0.171875 4.109375 -0.125 4.53125 -0.75 L 4.53125 2.390625 Z M 4.53125 -2.84375 C 4.53125 -1.53125 3.890625 -0.6875 2.921875 -0.6875 C 1.90625 -0.6875 1.25 -1.546875 1.25 -2.875 C 1.25 -4.21875 1.90625 -5.078125 2.921875 -5.078125 C 3.90625 -5.078125 4.53125 -4.1875 4.53125 -2.84375 Z M 4.53125 -2.84375 "/>
</symbol>
<symbol overflow="visible" id="glyph1-5">
<path style="stroke:none;" d="M 7.09375 -8.015625 L 6 -8.015625 L 3.78125 -1.234375 L 1.4375 -8.015625 L 0.328125 -8.015625 L 3.21875 0 L 4.3125 0 Z M 7.09375 -8.015625 "/>
</symbol>
<symbol overflow="visible" id="glyph1-6">
<path style="stroke:none;" d="M 5.890625 -0.015625 L 5.890625 -0.71875 C 5.78125 -0.6875 5.734375 -0.6875 5.6875 -0.6875 C 5.375 -0.6875 5.1875 -0.859375 5.1875 -1.140625 L 5.1875 -4.359375 C 5.1875 -5.375 4.4375 -5.921875 3.03125 -5.921875 C 1.625 -5.921875 0.765625 -5.390625 0.71875 -4.0625 L 1.640625 -4.0625 C 1.71875 -4.765625 2.140625 -5.078125 2.984375 -5.078125 C 3.8125 -5.078125 4.28125 -4.78125 4.28125 -4.21875 L 4.28125 -3.984375 C 4.28125 -3.59375 4.046875 -3.4375 3.328125 -3.34375 C 2.03125 -3.171875 1.828125 -3.140625 1.46875 -2.984375 C 0.796875 -2.71875 0.46875 -2.203125 0.46875 -1.5 C 0.46875 -0.453125 1.1875 0.171875 2.359375 0.171875 C 3.09375 0.171875 3.8125 -0.140625 4.3125 -0.6875 C 4.40625 -0.234375 4.8125 0.078125 5.265625 0.078125 C 5.4375 0.078125 5.59375 0.0625 5.890625 -0.015625 Z M 4.28125 -1.984375 C 4.28125 -1.171875 3.4375 -0.640625 2.546875 -0.640625 C 1.84375 -0.640625 1.421875 -0.890625 1.421875 -1.515625 C 1.421875 -2.125 1.828125 -2.390625 2.8125 -2.53125 C 3.765625 -2.65625 3.96875 -2.703125 4.28125 -2.84375 Z M 4.28125 -1.984375 "/>
</symbol>
<symbol overflow="visible" id="glyph1-7">
<path style="stroke:none;" d="M 3.8125 0 L 3.8125 -7.796875 L 3.171875 -7.796875 C 2.84375 -6.59375 2.625 -6.4375 1.125 -6.25 L 1.125 -5.5625 L 2.84375 -5.5625 L 2.84375 0 Z M 3.8125 0 "/>
</symbol>
<symbol overflow="visible" id="glyph2-0">
<path style="stroke:none;" d=""/>
</symbol>
<symbol overflow="visible" id="glyph2-1">
<path style="stroke:none;" d="M 0 -5.203125 L -2.984375 -3.21875 L -5.765625 -5.140625 L -5.765625 -4.109375 L -3.671875 -2.734375 L -5.765625 -1.34375 L -5.765625 -0.296875 L -2.9375 -2.21875 L 0 -0.1875 L 0 -1.234375 L -2.21875 -2.6875 L 0 -4.140625 Z M 0 -5.203125 "/>
</symbol>
</g>
<clipPath id="clip1">
  <path d="M 0 65.839844 L 504 65.839844 L 504 439 L 0 439 Z M 0 65.839844 "/>
</clipPath>
<clipPath id="clip2">
  <path d="M 25.152344 71.316406 L 365 71.316406 L 365 412 L 25.152344 412 Z M 25.152344 71.316406 "/>
</clipPath>
<clipPath id="clip3">
  <path d="M 25.152344 71.316406 L 365.84375 71.316406 L 365.84375 412 L 25.152344 412 Z M 25.152344 71.316406 "/>
</clipPath>
</defs>
<g id="surface21">
<rect x="0" y="0" width="504" height="504" style="fill:rgb(100%,100%,100%);fill-opacity:1;stroke:none;"/>
<g clip-path="url(#clip1)" clip-rule="nonzero">
<path style="fill-rule:nonzero;fill:rgb(100%,100%,100%);fill-opacity:1;stroke-width:1.066978;stroke-linecap:round;stroke-linejoin:round;stroke:rgb(100%,100%,100%);stroke-opacity:1;stroke-miterlimit:10;" d="M 0 438.160156 L 504 438.160156 L 504 65.835938 L 0 65.835938 Z M 0 438.160156 "/>
</g>
<g clip-path="url(#clip2)" clip-rule="nonzero">
<path style=" stroke:none;fill-rule:nonzero;fill:rgb(100%,100%,100%);fill-opacity:1;" d="M 25.152344 411.011719 L 364.84375 411.011719 L 364.84375 71.320312 L 25.152344 71.320312 Z M 25.152344 411.011719 "/>
</g>
<path style="fill:none;stroke-width:1.066978;stroke-linecap:butt;stroke-linejoin:round;stroke:rgb(92.156863%,92.156863%,92.156863%);stroke-opacity:1;stroke-miterlimit:10;" d="M 194.996094 241.164062 L 194.996094 88.300781 "/>
<path style="fill:none;stroke-width:1.066978;stroke-linecap:butt;stroke-linejoin:round;stroke:rgb(92.156863%,92.156863%,92.156863%);stroke-opacity:1;stroke-miterlimit:10;" d="M 194.996094 241.164062 L 314.507812 336.472656 "/>
<path style="fill:none;stroke-width:1.066978;stroke-linecap:butt;stroke-linejoin:round;stroke:rgb(92.156863%,92.156863%,92.156863%);stroke-opacity:1;stroke-miterlimit:10;" d="M 194.996094 241.164062 L 45.96875 275.179688 "/>
<path style="fill:none;stroke-width:0.533489;stroke-linecap:butt;stroke-linejoin:round;stroke:rgb(92.156863%,92.156863%,92.156863%);stroke-opacity:1;stroke-miterlimit:10;" d="M 194.996094 241.164062 L 194.996094 88.300781 "/>
<path style="fill:none;stroke-width:0.533489;stroke-linecap:butt;stroke-linejoin:round;stroke:rgb(92.156863%,92.156863%,92.156863%);stroke-opacity:1;stroke-miterlimit:10;" d="M 194.996094 241.164062 L 332.71875 174.839844 "/>
<path style="fill:none;stroke-width:0.533489;stroke-linecap:butt;stroke-linejoin:round;stroke:rgb(92.156863%,92.156863%,92.156863%);stroke-opacity:1;stroke-miterlimit:10;" d="M 194.996094 241.164062 L 314.507812 336.472656 "/>
<path style="fill:none;stroke-width:0.533489;stroke-linecap:butt;stroke-linejoin:round;stroke:rgb(92.156863%,92.156863%,92.156863%);stroke-opacity:1;stroke-miterlimit:10;" d="M 194.996094 241.164062 L 160.980469 390.195312 "/>
<path style="fill:none;stroke-width:0.533489;stroke-linecap:butt;stroke-linejoin:round;stroke:rgb(92.156863%,92.156863%,92.156863%);stroke-opacity:1;stroke-miterlimit:10;" d="M 194.996094 241.164062 L 45.96875 275.179688 "/>
<path style="fill:none;stroke-width:0.533489;stroke-linecap:butt;stroke-linejoin:round;stroke:rgb(92.156863%,92.156863%,92.156863%);stroke-opacity:1;stroke-miterlimit:10;" d="M 194.996094 241.164062 L 99.6875 121.652344 "/>
<path style="fill:none;stroke-width:1.066978;stroke-linecap:butt;stroke-linejoin:round;stroke:rgb(92.156863%,92.156863%,92.156863%);stroke-opacity:1;stroke-miterlimit:10;" d="M 194.996094 173.226562 L 199.304688 173.363281 L 203.597656 173.773438 L 207.855469 174.453125 L 212.058594 175.402344 L 216.195312 176.617188 L 220.246094 178.09375 L 224.195312 179.820312 L 228.027344 181.796875 L 231.726562 184.011719 L 235.277344 186.457031 L 238.667969 189.121094 L 241.878906 191.996094 L 244.902344 195.066406 L 247.726562 198.324219 L 250.339844 201.757812 L 252.726562 205.34375 L 254.882812 209.078125 L 256.796875 212.941406 L 258.460938 216.917969 L 259.871094 220.992188 L 261.019531 225.148438 L 261.902344 229.367188 L 262.515625 233.632812 L 262.859375 237.933594 L 262.925781 242.242188 L 262.722656 246.546875 L 262.242188 250.832031 L 261.496094 255.078125 L 260.480469 259.269531 L 259.199219 263.386719 L 257.660156 267.410156 L 255.871094 271.332031 L 253.832031 275.132812 L 251.5625 278.796875 L 249.058594 282.308594 L 246.339844 285.65625 L 243.417969 288.820312 L 240.296875 291.796875 L 236.992188 294.566406 L 233.523438 297.125 L 229.894531 299.453125 L 226.128906 301.550781 L 222.234375 303.402344 L 218.234375 305.003906 L 214.136719 306.351562 L 209.964844 307.433594 L 205.730469 308.25 L 201.453125 308.796875 L 197.152344 309.070312 L 192.839844 309.070312 L 188.539062 308.796875 L 184.261719 308.25 L 180.03125 307.433594 L 175.855469 306.351562 L 171.761719 305.003906 L 167.757812 303.402344 L 163.867188 301.550781 L 160.097656 299.453125 L 156.472656 297.125 L 153 294.566406 L 149.699219 291.796875 L 146.578125 288.820312 L 143.652344 285.65625 L 140.933594 282.308594 L 138.433594 278.796875 L 136.160156 275.132812 L 134.125 271.332031 L 132.332031 267.410156 L 130.796875 263.386719 L 129.515625 259.269531 L 128.5 255.078125 L 127.75 250.832031 L 127.273438 246.546875 L 127.066406 242.242188 L 127.136719 237.933594 L 127.476562 233.632812 L 128.089844 229.367188 L 128.972656 225.148438 L 130.121094 220.992188 L 131.53125 216.917969 L 133.199219 212.941406 L 135.113281 209.078125 L 137.269531 205.34375 L 139.65625 201.757812 L 142.265625 198.324219 L 145.089844 195.066406 L 148.113281 191.996094 L 151.328125 189.121094 L 154.714844 186.457031 L 158.265625 184.011719 L 161.964844 181.796875 L 165.796875 179.820312 L 169.746094 178.09375 L 173.796875 176.617188 L 177.933594 175.402344 L 182.140625 174.453125 L 186.394531 173.773438 L 190.6875 173.363281 L 194.996094 173.226562 "/>
<path style="fill:none;stroke-width:1.066978;stroke-linecap:butt;stroke-linejoin:round;stroke:rgb(92.156863%,92.156863%,92.156863%);stroke-opacity:1;stroke-miterlimit:10;" d="M 194.996094 88.300781 L 204.691406 88.609375 L 214.347656 89.53125 L 223.925781 91.066406 L 233.386719 93.203125 L 242.695312 95.933594 L 251.808594 99.253906 L 260.695312 103.140625 L 269.316406 107.585938 L 277.640625 112.570312 L 285.628906 118.070312 L 293.253906 124.066406 L 300.484375 130.53125 L 307.289062 137.445312 L 313.640625 144.777344 L 319.515625 152.496094 L 324.886719 160.570312 L 329.738281 168.972656 L 334.042969 177.664062 L 337.792969 186.609375 L 340.964844 195.777344 L 343.550781 205.125 L 345.535156 214.621094 L 346.917969 224.222656 L 347.683594 233.890625 L 347.839844 243.589844 L 347.378906 253.277344 L 346.304688 262.917969 L 344.617188 272.472656 L 342.332031 281.898438 L 339.453125 291.160156 L 335.988281 300.222656 L 331.960938 309.046875 L 327.378906 317.59375 L 322.265625 325.835938 L 316.636719 333.738281 L 310.523438 341.265625 L 303.941406 348.394531 L 296.921875 355.085938 L 289.488281 361.320312 L 281.679688 367.074219 L 273.519531 372.316406 L 265.042969 377.035156 L 256.285156 381.203125 L 247.277344 384.808594 L 238.0625 387.835938 L 228.675781 390.269531 L 219.148438 392.105469 L 209.527344 393.332031 L 199.847656 393.949219 L 190.148438 393.949219 L 180.464844 393.332031 L 170.84375 392.105469 L 161.320312 390.269531 L 151.929688 387.835938 L 142.714844 384.808594 L 133.710938 381.203125 L 124.953125 377.035156 L 116.476562 372.316406 L 108.316406 367.074219 L 100.503906 361.320312 L 93.074219 355.085938 L 86.054688 348.394531 L 79.472656 341.265625 L 73.355469 333.738281 L 67.730469 325.835938 L 62.613281 317.59375 L 58.035156 309.046875 L 54.003906 300.222656 L 50.542969 291.160156 L 47.664062 281.898438 L 45.375 272.472656 L 43.691406 262.917969 L 42.617188 253.277344 L 42.15625 243.589844 L 42.308594 233.890625 L 43.078125 224.222656 L 44.457031 214.621094 L 46.445312 205.125 L 49.027344 195.777344 L 52.203125 186.609375 L 55.949219 177.664062 L 60.257812 168.972656 L 65.105469 160.570312 L 70.480469 152.496094 L 76.355469 144.777344 L 82.707031 137.445312 L 89.511719 130.53125 L 96.738281 124.066406 L 104.363281 118.070312 L 112.355469 112.570312 L 120.675781 107.585938 L 129.296875 103.140625 L 138.183594 99.253906 L 147.300781 95.933594 L 156.605469 93.203125 L 166.066406 91.066406 L 175.644531 89.53125 L 185.300781 88.609375 L 194.996094 88.300781 "/>
<path style=" stroke:none;fill-rule:nonzero;fill:rgb(60%,60%,60%);fill-opacity:1;" d="M 194.996094 241.164062 L 196.039062 236.597656 L 197.082031 232.027344 L 199.167969 222.894531 L 200.210938 218.324219 L 201.253906 213.757812 L 202.296875 209.1875 L 203.335938 204.621094 L 204.378906 200.054688 L 205.421875 195.484375 L 206.464844 190.917969 L 207.507812 186.347656 L 209.59375 177.214844 L 210.636719 172.644531 L 211.679688 168.078125 L 212.722656 163.507812 L 213.765625 158.941406 L 214.804688 154.375 L 215.847656 149.804688 L 216.890625 145.238281 L 217.933594 140.667969 L 220.019531 131.535156 L 221.0625 126.964844 L 222.105469 122.398438 L 223.148438 117.828125 L 225.234375 108.695312 L 220.257812 107.65625 L 215.25 106.804688 L 210.210938 106.140625 L 205.152344 105.667969 L 200.078125 105.382812 L 194.996094 105.289062 Z M 194.996094 241.164062 "/>
<path style=" stroke:none;fill-rule:nonzero;fill:rgb(100%,100%,70.196078%);fill-opacity:1;" d="M 194.996094 241.164062 L 202.324219 235.320312 L 205.988281 232.402344 L 209.648438 229.480469 L 220.640625 220.714844 L 224.300781 217.792969 L 227.964844 214.871094 L 231.628906 211.953125 L 238.957031 206.109375 L 242.617188 203.1875 L 253.609375 194.421875 L 257.269531 191.503906 L 271.925781 179.816406 L 275.585938 176.894531 L 279.25 173.972656 L 282.914062 171.054688 L 290.242188 165.210938 L 293.902344 162.289062 L 301.230469 156.445312 L 298.164062 152.738281 L 294.964844 149.136719 L 291.640625 145.652344 L 288.199219 142.289062 L 284.636719 139.050781 L 280.964844 135.9375 L 277.183594 132.960938 L 273.296875 130.117188 L 269.316406 127.414062 L 265.238281 124.851562 L 261.074219 122.4375 L 256.828125 120.171875 L 252.5 118.054688 L 248.105469 116.097656 L 243.640625 114.292969 L 239.117188 112.648438 L 234.535156 111.167969 L 229.90625 109.847656 L 225.234375 108.695312 L 223.148438 117.828125 L 222.105469 122.398438 L 221.0625 126.964844 L 220.019531 131.535156 L 217.933594 140.667969 L 216.890625 145.238281 L 215.847656 149.804688 L 214.804688 154.375 L 213.765625 158.941406 L 212.722656 163.507812 L 211.679688 168.078125 L 210.636719 172.644531 L 209.59375 177.214844 L 207.507812 186.347656 L 206.464844 190.917969 L 205.421875 195.484375 L 204.378906 200.054688 L 203.335938 204.621094 L 202.296875 209.1875 L 201.253906 213.757812 L 200.210938 218.324219 L 199.167969 222.894531 L 197.082031 232.027344 L 196.039062 236.597656 Z M 194.996094 241.164062 "/>
<path style=" stroke:none;fill-rule:nonzero;fill:rgb(55.294118%,82.745098%,78.039216%);fill-opacity:1;" d="M 194.996094 241.164062 L 330.875 241.164062 L 330.789062 236.351562 L 330.53125 231.542969 L 330.105469 226.75 L 329.511719 221.972656 L 328.746094 217.21875 L 327.816406 212.496094 L 326.714844 207.808594 L 325.453125 203.164062 L 324.023438 198.566406 L 322.433594 194.023438 L 320.683594 189.539062 L 318.777344 185.117188 L 316.714844 180.769531 L 314.496094 176.492188 L 312.132812 172.300781 L 309.617188 168.195312 L 306.960938 164.179688 L 304.164062 160.261719 L 301.230469 156.445312 L 293.902344 162.289062 L 290.242188 165.210938 L 282.914062 171.054688 L 279.25 173.972656 L 275.585938 176.894531 L 271.925781 179.816406 L 257.269531 191.503906 L 253.609375 194.421875 L 242.617188 203.1875 L 238.957031 206.109375 L 231.628906 211.953125 L 227.964844 214.871094 L 224.300781 217.792969 L 220.640625 220.714844 L 209.648438 229.480469 L 205.988281 232.402344 L 202.324219 235.320312 Z M 194.996094 241.164062 "/>
<path style=" stroke:none;fill-rule:nonzero;fill:rgb(100%,49.803922%,0%);fill-opacity:1;" d="M 194.996094 241.164062 L 200.839844 248.492188 L 203.761719 252.152344 L 209.605469 259.480469 L 212.523438 263.144531 L 215.445312 266.808594 L 218.367188 270.46875 L 227.132812 281.460938 L 230.050781 285.121094 L 241.738281 299.777344 L 244.660156 303.4375 L 247.582031 307.101562 L 250.5 310.765625 L 253.421875 314.429688 L 256.34375 318.089844 L 268.03125 332.746094 L 270.949219 336.40625 L 279.714844 347.398438 L 283.332031 344.410156 L 286.84375 341.300781 L 290.242188 338.070312 L 293.53125 334.722656 L 296.703125 331.265625 L 299.75 327.703125 L 302.675781 324.035156 L 305.472656 320.269531 L 308.136719 316.410156 L 310.667969 312.460938 L 313.058594 308.425781 L 315.308594 304.308594 L 317.417969 300.121094 L 319.378906 295.859375 L 321.195312 291.53125 L 322.855469 287.148438 L 324.367188 282.707031 L 325.726562 278.214844 L 326.925781 273.683594 L 327.96875 269.109375 L 328.855469 264.503906 L 329.582031 259.867188 L 330.144531 255.210938 L 330.550781 250.539062 L 330.792969 245.855469 L 330.875 241.164062 Z M 194.996094 241.164062 "/>
<path style=" stroke:none;fill-rule:nonzero;fill:rgb(99.215686%,74.901961%,43.529412%);fill-opacity:1;" d="M 194.996094 241.164062 L 196.039062 245.730469 L 197.082031 250.300781 L 198.125 254.867188 L 199.167969 259.4375 L 201.253906 268.570312 L 202.296875 273.140625 L 203.335938 277.707031 L 204.378906 282.277344 L 206.464844 291.410156 L 207.507812 295.980469 L 208.550781 300.546875 L 209.59375 305.117188 L 211.679688 314.25 L 212.722656 318.820312 L 213.765625 323.386719 L 214.804688 327.957031 L 216.890625 337.089844 L 217.933594 341.660156 L 218.976562 346.226562 L 220.019531 350.796875 L 222.105469 359.929688 L 223.148438 364.5 L 225.234375 373.632812 L 229.785156 372.511719 L 234.300781 371.234375 L 238.765625 369.800781 L 243.179688 368.210938 L 247.535156 366.472656 L 251.828125 364.585938 L 256.054688 362.550781 L 260.210938 360.371094 L 264.285156 358.046875 L 268.277344 355.585938 L 272.183594 352.988281 L 275.996094 350.257812 L 279.714844 347.398438 L 270.949219 336.40625 L 268.03125 332.746094 L 256.34375 318.089844 L 253.421875 314.429688 L 250.5 310.765625 L 247.582031 307.101562 L 244.660156 303.4375 L 241.738281 299.777344 L 230.050781 285.121094 L 227.132812 281.460938 L 218.367188 270.46875 L 215.445312 266.808594 L 212.523438 263.144531 L 209.605469 259.480469 L 203.761719 252.152344 L 200.839844 248.492188 Z M 194.996094 241.164062 "/>
<path style=" stroke:none;fill-rule:nonzero;fill:rgb(89.019608%,10.196078%,10.980392%);fill-opacity:1;" d="M 194.996094 241.164062 L 193.953125 245.730469 L 192.910156 250.300781 L 191.871094 254.867188 L 190.828125 259.4375 L 188.742188 268.570312 L 187.699219 273.140625 L 186.65625 277.707031 L 185.613281 282.277344 L 183.527344 291.410156 L 182.484375 295.980469 L 181.441406 300.546875 L 180.402344 305.117188 L 178.316406 314.25 L 177.273438 318.820312 L 176.230469 323.386719 L 175.1875 327.957031 L 173.101562 337.089844 L 172.058594 341.660156 L 171.015625 346.226562 L 169.972656 350.796875 L 168.933594 355.363281 L 167.890625 359.929688 L 166.847656 364.5 L 164.761719 373.632812 L 169.351562 374.597656 L 173.972656 375.40625 L 178.617188 376.050781 L 183.285156 376.535156 L 187.964844 376.859375 L 192.652344 377.019531 L 197.34375 377.019531 L 202.03125 376.859375 L 206.710938 376.535156 L 211.375 376.050781 L 216.019531 375.40625 L 220.640625 374.597656 L 225.234375 373.632812 L 223.148438 364.5 L 222.105469 359.929688 L 220.019531 350.796875 L 218.976562 346.226562 L 217.933594 341.660156 L 216.890625 337.089844 L 214.804688 327.957031 L 213.765625 323.386719 L 212.722656 318.820312 L 211.679688 314.25 L 209.59375 305.117188 L 208.550781 300.546875 L 207.507812 295.980469 L 206.464844 291.410156 L 204.378906 282.277344 L 203.335938 277.707031 L 202.296875 273.140625 L 201.253906 268.570312 L 199.167969 259.4375 L 198.125 254.867188 L 197.082031 250.300781 L 196.039062 245.730469 Z M 194.996094 241.164062 "/>
<path style=" stroke:none;fill-rule:nonzero;fill:rgb(98.431373%,60.392157%,60%);fill-opacity:1;" d="M 194.996094 241.164062 L 192.074219 244.828125 L 189.15625 248.492188 L 186.234375 252.152344 L 174.546875 266.808594 L 171.625 270.46875 L 168.707031 274.132812 L 162.863281 281.460938 L 159.941406 285.121094 L 151.175781 296.113281 L 148.257812 299.777344 L 145.335938 303.4375 L 136.570312 314.429688 L 133.648438 318.089844 L 130.726562 321.753906 L 127.808594 325.417969 L 121.964844 332.746094 L 119.042969 336.40625 L 110.277344 347.398438 L 113.996094 350.257812 L 117.808594 352.988281 L 121.714844 355.585938 L 125.707031 358.046875 L 129.785156 360.371094 L 133.9375 362.550781 L 138.164062 364.585938 L 142.457031 366.472656 L 146.8125 368.210938 L 151.226562 369.800781 L 155.695312 371.234375 L 160.207031 372.511719 L 164.761719 373.632812 L 166.847656 364.5 L 167.890625 359.929688 L 168.933594 355.363281 L 169.972656 350.796875 L 171.015625 346.226562 L 172.058594 341.660156 L 173.101562 337.089844 L 175.1875 327.957031 L 176.230469 323.386719 L 177.273438 318.820312 L 178.316406 314.25 L 180.402344 305.117188 L 181.441406 300.546875 L 182.484375 295.980469 L 183.527344 291.410156 L 185.613281 282.277344 L 186.65625 277.707031 L 187.699219 273.140625 L 188.742188 268.570312 L 190.828125 259.4375 L 191.871094 254.867188 L 192.910156 250.300781 L 193.953125 245.730469 Z M 194.996094 241.164062 "/>
<path style=" stroke:none;fill-rule:nonzero;fill:rgb(20%,62.745098%,17.254902%);fill-opacity:1;" d="M 194.996094 241.164062 L 190.777344 243.199219 L 182.332031 247.261719 L 178.113281 249.296875 L 173.890625 251.328125 L 169.667969 253.363281 L 165.445312 255.394531 L 161.226562 257.429688 L 152.78125 261.492188 L 148.5625 263.527344 L 144.339844 265.558594 L 140.117188 267.59375 L 135.898438 269.625 L 131.675781 271.660156 L 127.453125 273.691406 L 123.234375 275.722656 L 119.011719 277.757812 L 114.789062 279.789062 L 110.570312 281.824219 L 106.347656 283.855469 L 102.125 285.890625 L 97.90625 287.921875 L 93.683594 289.953125 L 89.460938 291.988281 L 85.242188 294.019531 L 81.019531 296.054688 L 76.796875 298.085938 L 72.574219 300.121094 L 74.683594 304.308594 L 76.933594 308.425781 L 79.328125 312.460938 L 81.855469 316.410156 L 84.519531 320.269531 L 87.316406 324.035156 L 90.242188 327.703125 L 93.292969 331.265625 L 96.460938 334.722656 L 99.75 338.070312 L 103.152344 341.300781 L 106.664062 344.410156 L 110.277344 347.398438 L 119.042969 336.40625 L 121.964844 332.746094 L 127.808594 325.417969 L 130.726562 321.753906 L 133.648438 318.089844 L 136.570312 314.429688 L 145.335938 303.4375 L 148.257812 299.777344 L 151.175781 296.113281 L 159.941406 285.121094 L 162.863281 281.460938 L 168.707031 274.132812 L 171.625 270.46875 L 174.546875 266.808594 L 186.234375 252.152344 L 189.15625 248.492188 L 192.074219 244.828125 Z M 194.996094 241.164062 "/>
<path style=" stroke:none;fill-rule:nonzero;fill:rgb(12.156863%,47.058824%,70.588235%);fill-opacity:1;" d="M 194.996094 241.164062 L 190.429688 242.207031 L 185.859375 243.25 L 176.726562 245.335938 L 172.15625 246.378906 L 167.589844 247.421875 L 163.019531 248.460938 L 153.886719 250.546875 L 149.316406 251.589844 L 140.183594 253.675781 L 135.613281 254.71875 L 131.046875 255.761719 L 126.476562 256.804688 L 121.910156 257.847656 L 117.34375 258.886719 L 112.773438 259.929688 L 108.207031 260.972656 L 103.636719 262.015625 L 94.503906 264.101562 L 89.933594 265.144531 L 85.367188 266.1875 L 80.796875 267.230469 L 71.664062 269.316406 L 67.09375 270.355469 L 62.527344 271.398438 L 63.75 276.332031 L 65.15625 281.214844 L 66.746094 286.042969 L 68.511719 290.804688 L 70.457031 295.5 L 72.574219 300.121094 L 76.796875 298.085938 L 81.019531 296.054688 L 85.242188 294.019531 L 89.460938 291.988281 L 93.683594 289.953125 L 97.90625 287.921875 L 102.125 285.890625 L 106.347656 283.855469 L 110.570312 281.824219 L 114.789062 279.789062 L 119.011719 277.757812 L 123.234375 275.722656 L 127.453125 273.691406 L 131.675781 271.660156 L 135.898438 269.625 L 140.117188 267.59375 L 144.339844 265.558594 L 148.5625 263.527344 L 152.78125 261.492188 L 161.226562 257.429688 L 165.445312 255.394531 L 169.667969 253.363281 L 173.890625 251.328125 L 178.113281 249.296875 L 182.332031 247.261719 L 190.777344 243.199219 Z M 194.996094 241.164062 "/>
<path style=" stroke:none;fill-rule:nonzero;fill:rgb(65.098039%,80.784314%,89.019608%);fill-opacity:1;" d="M 194.996094 241.164062 L 191.332031 238.242188 L 187.671875 235.320312 L 184.007812 232.402344 L 176.679688 226.558594 L 173.019531 223.636719 L 162.027344 214.871094 L 158.363281 211.953125 L 154.703125 209.03125 L 143.710938 200.265625 L 140.050781 197.34375 L 136.386719 194.421875 L 132.722656 191.503906 L 125.394531 185.660156 L 121.734375 182.738281 L 110.742188 173.972656 L 107.078125 171.054688 L 103.417969 168.132812 L 92.425781 159.367188 L 88.765625 156.445312 L 85.902344 160.164062 L 83.171875 163.976562 L 80.574219 167.882812 L 78.113281 171.875 L 75.792969 175.953125 L 73.613281 180.105469 L 71.578125 184.332031 L 69.6875 188.625 L 67.949219 192.980469 L 66.363281 197.394531 L 64.929688 201.863281 L 63.648438 206.375 L 62.527344 210.929688 L 61.5625 215.519531 L 60.757812 220.140625 L 60.109375 224.785156 L 59.625 229.453125 L 59.300781 234.132812 L 59.140625 238.820312 L 59.140625 243.507812 L 59.300781 248.199219 L 59.625 252.878906 L 60.109375 257.542969 L 60.757812 262.1875 L 61.5625 266.808594 L 62.527344 271.398438 L 67.09375 270.355469 L 71.664062 269.316406 L 80.796875 267.230469 L 85.367188 266.1875 L 89.933594 265.144531 L 94.503906 264.101562 L 103.636719 262.015625 L 108.207031 260.972656 L 112.773438 259.929688 L 117.34375 258.886719 L 121.910156 257.847656 L 126.476562 256.804688 L 131.046875 255.761719 L 135.613281 254.71875 L 140.183594 253.675781 L 149.316406 251.589844 L 153.886719 250.546875 L 163.019531 248.460938 L 167.589844 247.421875 L 172.15625 246.378906 L 176.726562 245.335938 L 185.859375 243.25 L 190.429688 242.207031 Z M 194.996094 241.164062 "/>
<path style=" stroke:none;fill-rule:nonzero;fill:rgb(80%,47.45098%,65.490196%);fill-opacity:1;" d="M 194.996094 241.164062 L 192.074219 237.5 L 189.15625 233.839844 L 177.46875 219.183594 L 174.546875 215.523438 L 171.625 211.859375 L 168.707031 208.195312 L 162.863281 200.867188 L 159.941406 197.207031 L 151.175781 186.214844 L 148.257812 182.554688 L 136.570312 167.898438 L 133.648438 164.238281 L 130.726562 160.574219 L 127.808594 156.910156 L 124.886719 153.246094 L 121.964844 149.585938 L 110.277344 134.929688 L 106.367188 138.171875 L 102.578125 141.558594 L 98.917969 145.085938 L 95.390625 148.746094 L 92.007812 152.535156 L 88.765625 156.445312 L 92.425781 159.367188 L 103.417969 168.132812 L 107.078125 171.054688 L 110.742188 173.972656 L 121.734375 182.738281 L 125.394531 185.660156 L 132.722656 191.503906 L 136.386719 194.421875 L 140.050781 197.34375 L 143.710938 200.265625 L 154.703125 209.03125 L 158.363281 211.953125 L 162.027344 214.871094 L 173.019531 223.636719 L 176.679688 226.558594 L 184.007812 232.402344 L 187.671875 235.320312 L 191.332031 238.242188 Z M 194.996094 241.164062 "/>
<path style=" stroke:none;fill-rule:nonzero;fill:rgb(83.529412%,36.862745%,0%);fill-opacity:1;" d="M 194.996094 241.164062 L 193.953125 236.597656 L 192.910156 232.027344 L 191.871094 227.460938 L 190.828125 222.894531 L 189.785156 218.324219 L 188.742188 213.757812 L 187.699219 209.1875 L 185.613281 200.054688 L 184.570312 195.484375 L 183.527344 190.917969 L 182.484375 186.347656 L 181.441406 181.78125 L 180.402344 177.214844 L 179.359375 172.644531 L 178.316406 168.078125 L 177.273438 163.507812 L 175.1875 154.375 L 174.144531 149.804688 L 173.101562 145.238281 L 172.058594 140.667969 L 169.972656 131.535156 L 168.933594 126.964844 L 167.890625 122.398438 L 166.847656 117.828125 L 164.761719 108.695312 L 160.207031 109.816406 L 155.695312 111.09375 L 151.226562 112.53125 L 146.8125 114.117188 L 142.457031 115.855469 L 138.164062 117.742188 L 133.9375 119.777344 L 129.785156 121.960938 L 125.707031 124.28125 L 121.714844 126.742188 L 117.808594 129.339844 L 113.996094 132.070312 L 110.277344 134.929688 L 121.964844 149.585938 L 124.886719 153.246094 L 127.808594 156.910156 L 130.726562 160.574219 L 133.648438 164.238281 L 136.570312 167.898438 L 148.257812 182.554688 L 151.175781 186.214844 L 159.941406 197.207031 L 162.863281 200.867188 L 168.707031 208.195312 L 171.625 211.859375 L 174.546875 215.523438 L 177.46875 219.183594 L 189.15625 233.839844 L 192.074219 237.5 Z M 194.996094 241.164062 "/>
<path style=" stroke:none;fill-rule:nonzero;fill:rgb(0%,61.960784%,45.098039%);fill-opacity:1;" d="M 194.996094 241.164062 L 194.996094 105.289062 L 189.917969 105.382812 L 184.84375 105.667969 L 179.785156 106.140625 L 174.746094 106.804688 L 169.734375 107.65625 L 164.761719 108.695312 L 166.847656 117.828125 L 167.890625 122.398438 L 168.933594 126.964844 L 169.972656 131.535156 L 172.058594 140.667969 L 173.101562 145.238281 L 174.144531 149.804688 L 175.1875 154.375 L 177.273438 163.507812 L 178.316406 168.078125 L 179.359375 172.644531 L 180.402344 177.214844 L 181.441406 181.78125 L 182.484375 186.347656 L 183.527344 190.917969 L 184.570312 195.484375 L 185.613281 200.054688 L 187.699219 209.1875 L 188.742188 213.757812 L 189.785156 218.324219 L 190.828125 222.894531 L 191.871094 227.460938 L 192.910156 232.027344 L 193.953125 236.597656 Z M 194.996094 241.164062 "/>
<g style="fill:rgb(30.196078%,30.196078%,30.196078%);fill-opacity:1;">
  <use xlink:href="#glyph0-1" x="192.496094" y="90.90332"/>
</g>
<g style="fill:rgb(30.196078%,30.196078%,30.196078%);fill-opacity:1;">
  <use xlink:href="#glyph0-2" x="309.507812" y="339.075195"/>
  <use xlink:href="#glyph0-1" x="314.400391" y="339.075195"/>
</g>
<g style="fill:rgb(30.196078%,30.196078%,30.196078%);fill-opacity:1;">
  <use xlink:href="#glyph0-3" x="40.96875" y="277.782227"/>
  <use xlink:href="#glyph0-1" x="45.861328" y="277.782227"/>
</g>
<g clip-path="url(#clip3)" clip-rule="nonzero">
<path style="fill:none;stroke-width:1.066978;stroke-linecap:round;stroke-linejoin:round;stroke:rgb(20%,20%,20%);stroke-opacity:1;stroke-miterlimit:10;" d="M 25.152344 411.011719 L 364.84375 411.011719 L 364.84375 71.320312 L 25.152344 71.320312 Z M 25.152344 411.011719 "/>
</g>
<path style="fill:none;stroke-width:1.066978;stroke-linecap:butt;stroke-linejoin:round;stroke:rgb(20%,20%,20%);stroke-opacity:1;stroke-miterlimit:10;" d="M 22.410156 173.226562 L 25.152344 173.226562 "/>
<g style="fill:rgb(0%,0%,0%);fill-opacity:1;">
  <use xlink:href="#glyph1-1" x="183.496094" y="429.311523"/>
  <use xlink:href="#glyph1-2" x="190.216797" y="429.311523"/>
  <use xlink:href="#glyph1-3" x="193.879883" y="429.311523"/>
  <use xlink:href="#glyph1-4" x="199.996094" y="429.311523"/>
</g>
<g style="fill:rgb(0%,0%,0%);fill-opacity:1;">
  <use xlink:href="#glyph2-1" x="14.108398" y="244.164062"/>
</g>
<path style=" stroke:none;fill-rule:nonzero;fill:rgb(100%,100%,100%);fill-opacity:1;" d="M 375.800781 367.703125 L 498.519531 367.703125 L 498.519531 114.625 L 375.800781 114.625 Z M 375.800781 367.703125 "/>
<g style="fill:rgb(0%,0%,0%);fill-opacity:1;">
  <use xlink:href="#glyph1-5" x="381.28125" y="130.233398"/>
  <use xlink:href="#glyph1-6" x="388.618164" y="130.233398"/>
  <use xlink:href="#glyph1-2" x="394.734375" y="130.233398"/>
  <use xlink:href="#glyph1-7" x="398.397461" y="130.233398"/>
</g>
<path style=" stroke:none;fill-rule:nonzero;fill:rgb(100%,100%,100%);fill-opacity:1;" d="M 381.28125 154.863281 L 398.5625 154.863281 L 398.5625 137.582031 L 381.28125 137.582031 Z M 381.28125 154.863281 "/>
<path style=" stroke:none;fill-rule:nonzero;fill:rgb(0%,61.960784%,45.098039%);fill-opacity:1;" d="M 381.992188 154.15625 L 397.855469 154.15625 L 397.855469 138.292969 L 381.992188 138.292969 Z M 381.992188 154.15625 "/>
<path style=" stroke:none;fill-rule:nonzero;fill:rgb(100%,100%,100%);fill-opacity:1;" d="M 381.28125 172.144531 L 398.5625 172.144531 L 398.5625 154.863281 L 381.28125 154.863281 Z M 381.28125 172.144531 "/>
<path style=" stroke:none;fill-rule:nonzero;fill:rgb(83.529412%,36.862745%,0%);fill-opacity:1;" d="M 381.992188 171.433594 L 397.855469 171.433594 L 397.855469 155.570312 L 381.992188 155.570312 Z M 381.992188 171.433594 "/>
<path style=" stroke:none;fill-rule:nonzero;fill:rgb(100%,100%,100%);fill-opacity:1;" d="M 381.28125 189.425781 L 398.5625 189.425781 L 398.5625 172.144531 L 381.28125 172.144531 Z M 381.28125 189.425781 "/>
<path style=" stroke:none;fill-rule:nonzero;fill:rgb(80%,47.45098%,65.490196%);fill-opacity:1;" d="M 381.992188 188.714844 L 397.855469 188.714844 L 397.855469 172.851562 L 381.992188 172.851562 Z M 381.992188 188.714844 "/>
<path style=" stroke:none;fill-rule:nonzero;fill:rgb(100%,100%,100%);fill-opacity:1;" d="M 381.28125 206.703125 L 398.5625 206.703125 L 398.5625 189.421875 L 381.28125 189.421875 Z M 381.28125 206.703125 "/>
<path style=" stroke:none;fill-rule:nonzero;fill:rgb(65.098039%,80.784314%,89.019608%);fill-opacity:1;" d="M 381.992188 205.996094 L 397.855469 205.996094 L 397.855469 190.132812 L 381.992188 190.132812 Z M 381.992188 205.996094 "/>
<path style=" stroke:none;fill-rule:nonzero;fill:rgb(100%,100%,100%);fill-opacity:1;" d="M 381.28125 223.984375 L 398.5625 223.984375 L 398.5625 206.703125 L 381.28125 206.703125 Z M 381.28125 223.984375 "/>
<path style=" stroke:none;fill-rule:nonzero;fill:rgb(12.156863%,47.058824%,70.588235%);fill-opacity:1;" d="M 381.992188 223.277344 L 397.855469 223.277344 L 397.855469 207.414062 L 381.992188 207.414062 Z M 381.992188 223.277344 "/>
<path style=" stroke:none;fill-rule:nonzero;fill:rgb(100%,100%,100%);fill-opacity:1;" d="M 381.28125 241.265625 L 398.5625 241.265625 L 398.5625 223.984375 L 381.28125 223.984375 Z M 381.28125 241.265625 "/>
<path style=" stroke:none;fill-rule:nonzero;fill:rgb(20%,62.745098%,17.254902%);fill-opacity:1;" d="M 381.992188 240.554688 L 397.855469 240.554688 L 397.855469 224.691406 L 381.992188 224.691406 Z M 381.992188 240.554688 "/>
<path style=" stroke:none;fill-rule:nonzero;fill:rgb(100%,100%,100%);fill-opacity:1;" d="M 381.28125 258.542969 L 398.5625 258.542969 L 398.5625 241.261719 L 381.28125 241.261719 Z M 381.28125 258.542969 "/>
<path style=" stroke:none;fill-rule:nonzero;fill:rgb(98.431373%,60.392157%,60%);fill-opacity:1;" d="M 381.992188 257.835938 L 397.855469 257.835938 L 397.855469 241.972656 L 381.992188 241.972656 Z M 381.992188 257.835938 "/>
<path style=" stroke:none;fill-rule:nonzero;fill:rgb(100%,100%,100%);fill-opacity:1;" d="M 381.28125 275.824219 L 398.5625 275.824219 L 398.5625 258.542969 L 381.28125 258.542969 Z M 381.28125 275.824219 "/>
<path style=" stroke:none;fill-rule:nonzero;fill:rgb(89.019608%,10.196078%,10.980392%);fill-opacity:1;" d="M 381.992188 275.117188 L 397.855469 275.117188 L 397.855469 259.253906 L 381.992188 259.253906 Z M 381.992188 275.117188 "/>
<path style=" stroke:none;fill-rule:nonzero;fill:rgb(100%,100%,100%);fill-opacity:1;" d="M 381.28125 293.105469 L 398.5625 293.105469 L 398.5625 275.824219 L 381.28125 275.824219 Z M 381.28125 293.105469 "/>
<path style=" stroke:none;fill-rule:nonzero;fill:rgb(99.215686%,74.901961%,43.529412%);fill-opacity:1;" d="M 381.992188 292.394531 L 397.855469 292.394531 L 397.855469 276.53125 L 381.992188 276.53125 Z M 381.992188 292.394531 "/>
<path style=" stroke:none;fill-rule:nonzero;fill:rgb(100%,100%,100%);fill-opacity:1;" d="M 381.28125 310.382812 L 398.5625 310.382812 L 398.5625 293.101562 L 381.28125 293.101562 Z M 381.28125 310.382812 "/>
<path style=" stroke:none;fill-rule:nonzero;fill:rgb(100%,49.803922%,0%);fill-opacity:1;" d="M 381.992188 309.675781 L 397.855469 309.675781 L 397.855469 293.8125 L 381.992188 293.8125 Z M 381.992188 309.675781 "/>
<path style=" stroke:none;fill-rule:nonzero;fill:rgb(100%,100%,100%);fill-opacity:1;" d="M 381.28125 327.664062 L 398.5625 327.664062 L 398.5625 310.382812 L 381.28125 310.382812 Z M 381.28125 327.664062 "/>
<path style=" stroke:none;fill-rule:nonzero;fill:rgb(55.294118%,82.745098%,78.039216%);fill-opacity:1;" d="M 381.992188 326.957031 L 397.855469 326.957031 L 397.855469 311.09375 L 381.992188 311.09375 Z M 381.992188 326.957031 "/>
<path style=" stroke:none;fill-rule:nonzero;fill:rgb(100%,100%,100%);fill-opacity:1;" d="M 381.28125 344.945312 L 398.5625 344.945312 L 398.5625 327.664062 L 381.28125 327.664062 Z M 381.28125 344.945312 "/>
<path style=" stroke:none;fill-rule:nonzero;fill:rgb(100%,100%,70.196078%);fill-opacity:1;" d="M 381.992188 344.234375 L 397.855469 344.234375 L 397.855469 328.371094 L 381.992188 328.371094 Z M 381.992188 344.234375 "/>
<path style=" stroke:none;fill-rule:nonzero;fill:rgb(100%,100%,100%);fill-opacity:1;" d="M 381.28125 362.222656 L 398.5625 362.222656 L 398.5625 344.941406 L 381.28125 344.941406 Z M 381.28125 362.222656 "/>
<path style=" stroke:none;fill-rule:nonzero;fill:rgb(60%,60%,60%);fill-opacity:1;" d="M 381.992188 361.515625 L 397.855469 361.515625 L 397.855469 345.652344 L 381.992188 345.652344 Z M 381.992188 361.515625 "/>
<g style="fill:rgb(0%,0%,0%);fill-opacity:1;">
  <use xlink:href="#glyph0-4" x="404.042969" y="148.825195"/>
  <use xlink:href="#glyph0-5" x="410.396484" y="148.825195"/>
  <use xlink:href="#glyph0-6" x="415.289062" y="148.825195"/>
  <use xlink:href="#glyph0-7" x="417.242188" y="148.825195"/>
  <use xlink:href="#glyph0-8" x="422.134766" y="148.825195"/>
  <use xlink:href="#glyph0-9" x="429.464844" y="148.825195"/>
  <use xlink:href="#glyph0-10" x="433.865234" y="148.825195"/>
  <use xlink:href="#glyph0-11" x="438.757812" y="148.825195"/>
  <use xlink:href="#glyph0-7" x="440.710938" y="148.825195"/>
  <use xlink:href="#glyph0-12" x="445.603516" y="148.825195"/>
</g>
<g style="fill:rgb(0%,0%,0%);fill-opacity:1;">
  <use xlink:href="#glyph0-13" x="404.042969" y="166.106445"/>
  <use xlink:href="#glyph0-7" x="410.396484" y="166.106445"/>
  <use xlink:href="#glyph0-10" x="415.289062" y="166.106445"/>
  <use xlink:href="#glyph0-7" x="420.181641" y="166.106445"/>
  <use xlink:href="#glyph0-14" x="425.074219" y="166.106445"/>
  <use xlink:href="#glyph0-7" x="429.966797" y="166.106445"/>
  <use xlink:href="#glyph0-15" x="434.859375" y="166.106445"/>
  <use xlink:href="#glyph0-16" x="439.259766" y="166.106445"/>
  <use xlink:href="#glyph0-12" x="441.706055" y="166.106445"/>
  <use xlink:href="#glyph0-17" x="446.598633" y="166.106445"/>
  <use xlink:href="#glyph0-11" x="449.529297" y="166.106445"/>
  <use xlink:href="#glyph0-7" x="451.482422" y="166.106445"/>
</g>
<g style="fill:rgb(0%,0%,0%);fill-opacity:1;">
  <use xlink:href="#glyph0-13" x="404.042969" y="183.387695"/>
  <use xlink:href="#glyph0-12" x="410.396484" y="183.387695"/>
  <use xlink:href="#glyph0-18" x="415.289062" y="183.387695"/>
  <use xlink:href="#glyph0-12" x="417.735352" y="183.387695"/>
  <use xlink:href="#glyph0-17" x="422.62793" y="183.387695"/>
  <use xlink:href="#glyph0-17" x="425.558594" y="183.387695"/>
  <use xlink:href="#glyph0-11" x="428.489258" y="183.387695"/>
  <use xlink:href="#glyph0-14" x="430.442383" y="183.387695"/>
  <use xlink:href="#glyph0-7" x="435.334961" y="183.387695"/>
  <use xlink:href="#glyph0-15" x="440.227539" y="183.387695"/>
  <use xlink:href="#glyph0-16" x="444.62793" y="183.387695"/>
  <use xlink:href="#glyph0-12" x="447.074219" y="183.387695"/>
  <use xlink:href="#glyph0-17" x="451.966797" y="183.387695"/>
  <use xlink:href="#glyph0-12" x="454.897461" y="183.387695"/>
  <use xlink:href="#glyph0-19" x="459.790039" y="183.387695"/>
</g>
<g style="fill:rgb(0%,0%,0%);fill-opacity:1;">
  <use xlink:href="#glyph0-13" x="404.042969" y="200.665039"/>
  <use xlink:href="#glyph0-12" x="410.396484" y="200.665039"/>
  <use xlink:href="#glyph0-11" x="415.289062" y="200.665039"/>
  <use xlink:href="#glyph0-20" x="417.242188" y="200.665039"/>
  <use xlink:href="#glyph0-21" x="422.134766" y="200.665039"/>
  <use xlink:href="#glyph0-15" x="427.027344" y="200.665039"/>
  <use xlink:href="#glyph0-21" x="431.427734" y="200.665039"/>
  <use xlink:href="#glyph0-15" x="436.320312" y="200.665039"/>
  <use xlink:href="#glyph0-15" x="440.720703" y="200.665039"/>
  <use xlink:href="#glyph0-22" x="445.121094" y="200.665039"/>
  <use xlink:href="#glyph0-19" x="450.013672" y="200.665039"/>
  <use xlink:href="#glyph0-23" x="454.414062" y="200.665039"/>
  <use xlink:href="#glyph0-24" x="457.344727" y="200.665039"/>
  <use xlink:href="#glyph0-5" x="462.72168" y="200.665039"/>
  <use xlink:href="#glyph0-12" x="467.614258" y="200.665039"/>
  <use xlink:href="#glyph0-17" x="472.506836" y="200.665039"/>
  <use xlink:href="#glyph0-8" x="475.4375" y="200.665039"/>
  <use xlink:href="#glyph0-22" x="482.767578" y="200.665039"/>
  <use xlink:href="#glyph0-19" x="487.660156" y="200.665039"/>
</g>
<g style="fill:rgb(0%,0%,0%);fill-opacity:1;">
  <use xlink:href="#glyph0-25" x="404.042969" y="217.946289"/>
  <use xlink:href="#glyph0-6" x="409.912109" y="217.946289"/>
  <use xlink:href="#glyph0-22" x="411.865234" y="217.946289"/>
  <use xlink:href="#glyph0-19" x="416.757812" y="217.946289"/>
  <use xlink:href="#glyph0-11" x="421.158203" y="217.946289"/>
  <use xlink:href="#glyph0-8" x="423.111328" y="217.946289"/>
  <use xlink:href="#glyph0-11" x="430.441406" y="217.946289"/>
  <use xlink:href="#glyph0-15" x="432.394531" y="217.946289"/>
  <use xlink:href="#glyph0-17" x="436.794922" y="217.946289"/>
  <use xlink:href="#glyph0-21" x="439.725586" y="217.946289"/>
  <use xlink:href="#glyph0-14" x="444.618164" y="217.946289"/>
  <use xlink:href="#glyph0-11" x="449.510742" y="217.946289"/>
  <use xlink:href="#glyph0-7" x="451.463867" y="217.946289"/>
</g>
<g style="fill:rgb(0%,0%,0%);fill-opacity:1;">
  <use xlink:href="#glyph0-26" x="404.042969" y="235.227539"/>
  <use xlink:href="#glyph0-12" x="410.889648" y="235.227539"/>
  <use xlink:href="#glyph0-8" x="415.782227" y="235.227539"/>
  <use xlink:href="#glyph0-8" x="423.112305" y="235.227539"/>
  <use xlink:href="#glyph0-7" x="430.442383" y="235.227539"/>
  <use xlink:href="#glyph0-16" x="435.334961" y="235.227539"/>
  <use xlink:href="#glyph0-11" x="437.78125" y="235.227539"/>
  <use xlink:href="#glyph0-8" x="439.734375" y="235.227539"/>
  <use xlink:href="#glyph0-21" x="447.064453" y="235.227539"/>
  <use xlink:href="#glyph0-20" x="451.957031" y="235.227539"/>
  <use xlink:href="#glyph0-7" x="456.849609" y="235.227539"/>
  <use xlink:href="#glyph0-10" x="461.742188" y="235.227539"/>
  <use xlink:href="#glyph0-12" x="466.634766" y="235.227539"/>
  <use xlink:href="#glyph0-16" x="471.527344" y="235.227539"/>
  <use xlink:href="#glyph0-12" x="473.973633" y="235.227539"/>
  <use xlink:href="#glyph0-19" x="478.866211" y="235.227539"/>
</g>
<g style="fill:rgb(0%,0%,0%);fill-opacity:1;">
  <use xlink:href="#glyph0-27" x="404.042969" y="252.504883"/>
  <use xlink:href="#glyph0-9" x="410.396484" y="252.504883"/>
  <use xlink:href="#glyph0-10" x="414.796875" y="252.504883"/>
  <use xlink:href="#glyph0-17" x="419.689453" y="252.504883"/>
  <use xlink:href="#glyph0-21" x="422.620117" y="252.504883"/>
  <use xlink:href="#glyph0-28" x="427.512695" y="252.504883"/>
  <use xlink:href="#glyph0-12" x="432.405273" y="252.504883"/>
  <use xlink:href="#glyph0-20" x="437.297852" y="252.504883"/>
  <use xlink:href="#glyph0-12" x="442.19043" y="252.504883"/>
  <use xlink:href="#glyph0-10" x="447.083008" y="252.504883"/>
  <use xlink:href="#glyph0-12" x="451.975586" y="252.504883"/>
  <use xlink:href="#glyph0-20" x="456.868164" y="252.504883"/>
  <use xlink:href="#glyph0-16" x="461.760742" y="252.504883"/>
  <use xlink:href="#glyph0-12" x="464.207031" y="252.504883"/>
  <use xlink:href="#glyph0-19" x="469.099609" y="252.504883"/>
</g>
<g style="fill:rgb(0%,0%,0%);fill-opacity:1;">
  <use xlink:href="#glyph0-29" x="404.042969" y="269.786133"/>
  <use xlink:href="#glyph0-7" x="408.935547" y="269.786133"/>
  <use xlink:href="#glyph0-16" x="413.828125" y="269.786133"/>
  <use xlink:href="#glyph0-12" x="416.274414" y="269.786133"/>
  <use xlink:href="#glyph0-19" x="421.166992" y="269.786133"/>
  <use xlink:href="#glyph0-15" x="425.567383" y="269.786133"/>
  <use xlink:href="#glyph0-11" x="429.967773" y="269.786133"/>
  <use xlink:href="#glyph0-14" x="431.920898" y="269.786133"/>
  <use xlink:href="#glyph0-7" x="436.813477" y="269.786133"/>
  <use xlink:href="#glyph0-15" x="441.706055" y="269.786133"/>
  <use xlink:href="#glyph0-16" x="446.106445" y="269.786133"/>
  <use xlink:href="#glyph0-12" x="448.552734" y="269.786133"/>
  <use xlink:href="#glyph0-17" x="453.445312" y="269.786133"/>
  <use xlink:href="#glyph0-11" x="456.375977" y="269.786133"/>
  <use xlink:href="#glyph0-7" x="458.329102" y="269.786133"/>
</g>
<g style="fill:rgb(0%,0%,0%);fill-opacity:1;">
  <use xlink:href="#glyph0-30" x="404.042969" y="287.067383"/>
  <use xlink:href="#glyph0-11" x="410.396484" y="287.067383"/>
  <use xlink:href="#glyph0-16" x="412.349609" y="287.067383"/>
  <use xlink:href="#glyph0-17" x="414.795898" y="287.067383"/>
  <use xlink:href="#glyph0-21" x="417.726562" y="287.067383"/>
  <use xlink:href="#glyph0-19" x="422.619141" y="287.067383"/>
  <use xlink:href="#glyph0-31" x="427.019531" y="287.067383"/>
  <use xlink:href="#glyph0-11" x="431.912109" y="287.067383"/>
  <use xlink:href="#glyph0-20" x="433.865234" y="287.067383"/>
  <use xlink:href="#glyph0-7" x="438.757812" y="287.067383"/>
  <use xlink:href="#glyph0-12" x="443.650391" y="287.067383"/>
</g>
<g style="fill:rgb(0%,0%,0%);fill-opacity:1;">
  <use xlink:href="#glyph0-30" x="404.042969" y="304.344727"/>
  <use xlink:href="#glyph0-11" x="410.396484" y="304.344727"/>
  <use xlink:href="#glyph0-16" x="412.349609" y="304.344727"/>
  <use xlink:href="#glyph0-17" x="414.795898" y="304.344727"/>
  <use xlink:href="#glyph0-21" x="417.726562" y="304.344727"/>
  <use xlink:href="#glyph0-19" x="422.619141" y="304.344727"/>
  <use xlink:href="#glyph0-31" x="427.019531" y="304.344727"/>
  <use xlink:href="#glyph0-11" x="431.912109" y="304.344727"/>
  <use xlink:href="#glyph0-17" x="433.865234" y="304.344727"/>
  <use xlink:href="#glyph0-7" x="436.795898" y="304.344727"/>
  <use xlink:href="#glyph0-12" x="441.688477" y="304.344727"/>
</g>
<g style="fill:rgb(0%,0%,0%);fill-opacity:1;">
  <use xlink:href="#glyph0-32" x="404.042969" y="321.625977"/>
  <use xlink:href="#glyph0-31" x="409.912109" y="321.625977"/>
  <use xlink:href="#glyph0-11" x="414.804688" y="321.625977"/>
  <use xlink:href="#glyph0-17" x="416.757812" y="321.625977"/>
  <use xlink:href="#glyph0-21" x="419.688477" y="321.625977"/>
  <use xlink:href="#glyph0-15" x="424.581055" y="321.625977"/>
  <use xlink:href="#glyph0-5" x="428.981445" y="321.625977"/>
  <use xlink:href="#glyph0-7" x="433.874023" y="321.625977"/>
  <use xlink:href="#glyph0-12" x="438.766602" y="321.625977"/>
  <use xlink:href="#glyph0-16" x="443.65918" y="321.625977"/>
  <use xlink:href="#glyph0-12" x="446.105469" y="321.625977"/>
  <use xlink:href="#glyph0-19" x="450.998047" y="321.625977"/>
</g>
<g style="fill:rgb(0%,0%,0%);fill-opacity:1;">
  <use xlink:href="#glyph0-24" x="404.042969" y="338.907227"/>
  <use xlink:href="#glyph0-5" x="409.419922" y="338.907227"/>
  <use xlink:href="#glyph0-7" x="414.3125" y="338.907227"/>
  <use xlink:href="#glyph0-22" x="419.205078" y="338.907227"/>
  <use xlink:href="#glyph0-8" x="424.097656" y="338.907227"/>
  <use xlink:href="#glyph0-7" x="431.427734" y="338.907227"/>
  <use xlink:href="#glyph0-17" x="436.320312" y="338.907227"/>
  <use xlink:href="#glyph0-15" x="439.250977" y="338.907227"/>
  <use xlink:href="#glyph0-5" x="443.651367" y="338.907227"/>
  <use xlink:href="#glyph0-7" x="448.543945" y="338.907227"/>
  <use xlink:href="#glyph0-12" x="453.436523" y="338.907227"/>
  <use xlink:href="#glyph0-21" x="458.329102" y="338.907227"/>
  <use xlink:href="#glyph0-16" x="463.22168" y="338.907227"/>
  <use xlink:href="#glyph0-7" x="465.667969" y="338.907227"/>
</g>
<g style="fill:rgb(0%,0%,0%);fill-opacity:1;">
  <use xlink:href="#glyph0-33" x="404.042969" y="356.188477"/>
  <use xlink:href="#glyph0-34" x="412.349609" y="356.188477"/>
  <use xlink:href="#glyph0-32" x="418.21875" y="356.188477"/>
  <use xlink:href="#glyph0-23" x="424.087891" y="356.188477"/>
  <use xlink:href="#glyph0-3" x="427.018555" y="356.188477"/>
</g>
</g>
</svg>
